(module MountingHole:MountingHole_3.2mm_M3_Pad (layer F.Cu) (tedit 5EBBC5E1)
  (descr "Mounting Hole 3.2mm, M3")
  (tags "mounting hole 3.2mm m3")
  (attr virtual)
  (fp_text reference REF** (at 0 -4.2) (layer F.SilkS) hide
    (effects (font (size 1 1) (thickness 0.15)))
  )
  (fp_text value MountingHole_3.2mm_M3_Pad (at 0 4.2) (layer F.Fab)
    (effects (font (size 1 1) (thickness 0.15)))
  )
  (fp_text user %R (at 0.3 0) (layer F.Fab)
    (effects (font (size 1 1) (thickness 0.15)))
  )
  (fp_circle (center 0 0) (end 3.2 0) (layer Cmts.User) (width 0.15))
  (fp_circle (center 0 0) (end 3.45 0) (layer F.CrtYd) (width 0.05))
  (fp_circle (center 0 0) (end 1.7 0) (layer F.CrtYd) (width 0.05))
  (pad "" thru_hole circle (at 0 0) (size 5 5) (drill 3.4) (layers *.Cu *.Mask)
    (clearance 0.4))
)
