(module MX_Alps_Hybrid:MX-1U-choc-reversible-noLED_encoder (layer F.Cu) (tedit 5EBBC0A2)
  (fp_text reference MX19 (at -5.08 -7.874) (layer F.SilkS)
    (effects (font (size 1 1) (thickness 0.15)))
  )
  (fp_text value MX-NoLED (at 0 -0.5) (layer F.Fab)
    (effects (font (size 1 1) (thickness 0.15)))
  )
  (fp_line (start -9.525 9.525) (end -9.525 -9.525) (layer Dwgs.User) (width 0.15))
  (fp_line (start 9.525 9.525) (end -9.525 9.525) (layer Dwgs.User) (width 0.15))
  (fp_line (start 9.525 -9.525) (end 9.525 9.525) (layer Dwgs.User) (width 0.15))
  (fp_line (start -9.525 -9.525) (end 9.525 -9.525) (layer Dwgs.User) (width 0.15))
  (fp_text user 1U (at 0 -7.9375) (layer Dwgs.User)
    (effects (font (size 1 1) (thickness 0.15)))
  )
  (fp_line (start 0 3) (end 0 -3) (layer F.Fab) (width 0.12))
  (fp_line (start -3 0) (end 3 0) (layer F.Fab) (width 0.12))
  (fp_line (start -4.1 7.2) (end -3.8 7.5) (layer F.SilkS) (width 0.12))
  (fp_line (start -4.1 7.8) (end -4.1 7.2) (layer F.SilkS) (width 0.12))
  (fp_line (start -3.8 7.5) (end -4.1 7.8) (layer F.SilkS) (width 0.12))
  (fp_line (start -4.7 6) (end -5.8 5) (layer F.Fab) (width 0.12))
  (fp_line (start 5.8 6) (end -4.7 6) (layer F.Fab) (width 0.12))
  (fp_line (start 5.8 -6) (end 5.8 6) (layer F.Fab) (width 0.12))
  (fp_line (start -5.8 -6) (end 5.8 -6) (layer F.Fab) (width 0.12))
  (fp_line (start -5.8 5) (end -5.8 -6) (layer F.Fab) (width 0.12))
  (fp_circle (center 0 0) (end 0 -3) (layer F.Fab) (width 0.12))
  (fp_text user %R (at 3.8 -3.6 90) (layer F.Fab)
    (effects (font (size 1 1) (thickness 0.15)))
  )
  (fp_text user "ENCODER 1" (at 0.6604 5.6642) (layer F.SilkS)
    (effects (font (size 1 1) (thickness 0.15)))
  )
  (fp_line (start 5 -7) (end 7 -7) (layer B.SilkS) (width 0.15))
  (fp_line (start 7 -7) (end 7 -5) (layer B.SilkS) (width 0.15))
  (fp_line (start -5 -7) (end -7 -7) (layer F.SilkS) (width 0.15))
  (fp_line (start -7 -7) (end -7 -5) (layer F.SilkS) (width 0.15))
  (fp_text user %R (at 3.8 -3.6 90) (layer F.Fab)
    (effects (font (size 1 1) (thickness 0.15)))
  )
  (fp_text user "ENCODER 1" (at 0.6604 5.6642) (layer F.SilkS)
    (effects (font (size 1 1) (thickness 0.15)))
  )
  (fp_line (start -5.9332 6.111) (end -3.9332 6.111) (layer F.SilkS) (width 0.15))
  (fp_line (start -5.9332 4.111) (end -5.9332 6.111) (layer F.SilkS) (width 0.15))
  (fp_line (start 5.9332 -6.1364) (end 3.9332 -6.1364) (layer F.SilkS) (width 0.15))
  (fp_line (start 5.9332 -4.1364) (end 5.9332 -6.1364) (layer F.SilkS) (width 0.15))
  (fp_line (start 5.9332 6.1364) (end 3.9332 6.1364) (layer B.SilkS) (width 0.15))
  (fp_line (start 5.9332 4.1364) (end 5.9332 6.1364) (layer B.SilkS) (width 0.15))
  (fp_line (start -5.9332 -6.1364) (end -3.9332 -6.1364) (layer B.SilkS) (width 0.15))
  (fp_line (start -5.9332 -4.1364) (end -5.9332 -6.1364) (layer B.SilkS) (width 0.15))
  (fp_line (start -7 -7) (end -7 7) (layer F.CrtYd) (width 0.01))
  (fp_line (start 7 -7) (end 7 7) (layer F.CrtYd) (width 0.01))
  (fp_line (start -2.5 -8.75) (end 2.5 -8.75) (layer F.CrtYd) (width 0.01))
  (fp_line (start -3.25 -8) (end -3.25 -7.75) (layer F.CrtYd) (width 0.01))
  (fp_line (start -4 -7) (end -7 -7) (layer F.CrtYd) (width 0.01))
  (fp_line (start 3.25 -8) (end 3.25 -7.75) (layer F.CrtYd) (width 0.01))
  (fp_line (start 4 -7) (end 7 -7) (layer F.CrtYd) (width 0.01))
  (fp_line (start -2.5 8.75) (end 2.5 8.75) (layer F.CrtYd) (width 0.01))
  (fp_line (start 3.25 8) (end 3.25 7.75) (layer F.CrtYd) (width 0.01))
  (fp_line (start 4 7) (end 7 7) (layer F.CrtYd) (width 0.01))
  (fp_line (start -3.25 8) (end -3.25 7.75) (layer F.CrtYd) (width 0.01))
  (fp_line (start -4 7) (end -7 7) (layer F.CrtYd) (width 0.01))
  (fp_arc (start -4 -7.75) (end -4 -7) (angle -90) (layer F.CrtYd) (width 0.01))
  (fp_arc (start -2.5 -8) (end -2.5 -8.75) (angle -90) (layer F.CrtYd) (width 0.01))
  (fp_arc (start 2.5 -8) (end 3.25 -8) (angle -90) (layer F.CrtYd) (width 0.01))
  (fp_arc (start 4 -7.75) (end 3.25 -7.75) (angle -90) (layer F.CrtYd) (width 0.01))
  (fp_arc (start 4 7.75) (end 4 7) (angle -90) (layer F.CrtYd) (width 0.01))
  (fp_arc (start 2.5 8) (end 2.5 8.75) (angle -90) (layer F.CrtYd) (width 0.01))
  (fp_arc (start -2.5 8) (end -3.25 8) (angle -90) (layer F.CrtYd) (width 0.01))
  (fp_arc (start -4 7.75) (end -3.25 7.75) (angle -90) (layer F.CrtYd) (width 0.01))
  (pad "" np_thru_hole circle (at 5.08 0 48.0996) (size 1.75 1.75) (drill 1.75) (layers *.Cu *.Mask))
  (pad "" np_thru_hole circle (at -5.08 0 48.0996) (size 1.75 1.75) (drill 1.75) (layers *.Cu *.Mask))
  (pad "" np_thru_hole circle (at 0 0) (size 3.9878 3.9878) (drill 3.9878) (layers *.Cu *.Mask))
  (pad 2 thru_hole roundrect (at 2.54 -5.08) (size 2.25 1.8) (drill 1.55) (layers *.Cu *.Mask) (roundrect_rratio 0.5))
  (pad 1 thru_hole circle (at -3.81 -2.54) (size 2.25 2.25) (drill 1.55) (layers *.Cu *.Mask))
  (pad "" np_thru_hole circle (at -5.22 4.2) (size 1.2 1.2) (drill 1.2) (layers *.Cu *.Mask))
  (pad "" np_thru_hole circle (at -5.5 0 48.1) (size 1.9 1.9) (drill 1.9) (layers *.Cu *.Mask))
  (pad "" np_thru_hole circle (at 5.5 0 48.1) (size 1.9 1.9) (drill 1.9) (layers *.Cu *.Mask))
  (pad 2 thru_hole circle (at 0 -5.9) (size 2.25 2.25) (drill 1.55) (layers *.Cu *.Mask))
  (pad 1 thru_hole circle (at 3.81 -2.54) (size 2.25 2.25) (drill 1.55) (layers *.Cu *.Mask))
  (pad "" np_thru_hole circle (at 5.22 4.2 180) (size 1.2 1.2) (drill 1.2) (layers *.Cu *.Mask))
  (pad 2 thru_hole roundrect (at -2.54 -5.08) (size 2.25 1.8) (drill 1.55) (layers *.Cu *.Mask) (roundrect_rratio 0.5))
  (pad 2 connect roundrect (at 1.27 -5.207 72) (size 2 4.5) (layers F.Cu F.Mask) (roundrect_rratio 0.5))
  (pad 2 connect roundrect (at -1.27 -5.207 288) (size 2 4.5) (layers F.Cu F.Mask) (roundrect_rratio 0.5))
  (pad 1 thru_hole roundrect (at 2.5 -7) (size 1.5 1.2) (drill 1) (layers *.Cu *.Mask) (roundrect_rratio 0.5))
  (pad 2 thru_hole roundrect (at -2.5 -7) (size 1.5 1.2) (drill 1) (layers *.Cu *.Mask) (roundrect_rratio 0.5))
  (pad "" thru_hole roundrect (at 5.6 0 90) (size 3.4 2.2) (drill oval 2.8 1.6) (layers *.Cu *.Mask) (roundrect_rratio 0.25))
  (pad "" thru_hole roundrect (at -5.6 0 90) (size 3.4 2.2) (drill oval 2.8 1.6) (layers *.Cu *.Mask) (roundrect_rratio 0.25))
  (pad B thru_hole circle (at 2.5 7.5 90) (size 2 2) (drill 1) (layers *.Cu *.Mask))
  (pad C thru_hole circle (at 0 7.5 90) (size 2 2) (drill 1) (layers *.Cu *.Mask))
  (pad A thru_hole rect (at -2.5 7.5 90) (size 2 2) (drill 1) (layers *.Cu *.Mask))
  (pad 2 connect roundrect (at 1.27 -5.207 252) (size 2 4.5) (layers B.Cu B.Mask) (roundrect_rratio 0.5))
  (pad 2 connect roundrect (at -1.27 -5.207 108) (size 2 4.5) (layers B.Cu B.Mask) (roundrect_rratio 0.5))
  (pad 2 connect rect (at -2.4892 -5.842) (size 1.2 3) (layers F.Cu))
  (pad 1 connect roundrect (at 4.9276 -5.0292) (size 1 5) (layers F.Cu) (roundrect_rratio 0.5))
  (pad 1 connect roundrect (at 3.683 -7.0358 90) (size 1 3.5) (layers F.Cu) (roundrect_rratio 0.5))
  (pad 1 thru_hole oval (at -5 -3.8 43) (size 2.25 3.75) (drill 1.55 (offset 0 0.75)) (layers *.Cu *.Mask))
  (pad 1 thru_hole oval (at 5 -3.8 317) (size 2.25 3.75) (drill 1.55 (offset 0 0.75)) (layers *.Cu *.Mask))
  (pad 1 connect roundrect (at 4.318 -6.0706 30) (size 1 3) (layers F.Cu) (roundrect_rratio 0.5))
)
