(module SW_Tactile_SPST_Angled_MJTP1117 (layer F.Cu) (tedit 5EBE5801)
  (descr "tactile switch SPST right angle, PTS645VL39-2 LFS")
  (tags "tactile switch SPST angled PTS645VL39-2 LFS C&K Button")
  (fp_text reference SW1 (at 2.413 5.08) (layer Dwgs.User)
    (effects (font (size 1 1) (thickness 0.15)))
  )
  (fp_text value RESET (at 2.413 2.54) (layer F.SilkS)
    (effects (font (size 1 1) (thickness 0.15)))
  )
  (fp_text user RESET (at 2.4638 2.54 -180) (layer B.SilkS)
    (effects (font (size 1 1) (thickness 0.15)) (justify mirror))
  )
  (fp_line (start 5.8438 0.97) (end 5.3038 0.97) (layer B.SilkS) (width 0.12))
  (fp_line (start -0.2962 0.97) (end -0.8362 0.97) (layer B.SilkS) (width 0.12))
  (fp_line (start 4.2038 0.97) (end 0.8038 0.97) (layer B.SilkS) (width 0.12))
  (fp_line (start -1.3562 -2.7) (end -1.3562 1.2) (layer B.SilkS) (width 0.12))
  (fp_line (start 6.3638 -2.7) (end -1.3562 -2.7) (layer B.SilkS) (width 0.12))
  (fp_line (start 6.3638 -2.7) (end 6.3638 1.2) (layer B.SilkS) (width 0.12))
  (fp_line (start -0.8362 0.97) (end -0.8362 1.2) (layer B.SilkS) (width 0.12))
  (fp_line (start 5.8438 0.97) (end 5.8438 1.2) (layer B.SilkS) (width 0.12))
  (fp_line (start 1.05 -3.85) (end 1.05 -2.59) (layer F.Fab) (width 0.1))
  (fp_line (start 3.95 -3.85) (end 3.95 -2.59) (layer F.Fab) (width 0.1))
  (fp_line (start 1.05 -3.85) (end 3.95 -3.85) (layer F.Fab) (width 0.1))
  (fp_line (start -0.84 0.97) (end -0.84 1.2) (layer F.SilkS) (width 0.12))
  (fp_line (start 5.95 3.6) (end 5.95 0.86) (layer F.Fab) (width 0.1))
  (fp_line (start -1.25 3.6) (end -0.95 3.6) (layer F.Fab) (width 0.1))
  (fp_line (start -0.95 0.86) (end 5.95 0.86) (layer F.Fab) (width 0.1))
  (fp_line (start 6.25 3.6) (end 6.25 -2.59) (layer F.Fab) (width 0.1))
  (fp_line (start -2.25 -2.8) (end 7.3 -2.8) (layer F.CrtYd) (width 0.05))
  (fp_line (start 7.3 -2.8) (end 7.3 4.45) (layer F.CrtYd) (width 0.05))
  (fp_line (start 7.3 4.45) (end -2.25 4.45) (layer F.CrtYd) (width 0.05))
  (fp_line (start -2.25 4.45) (end -2.25 -2.8) (layer F.CrtYd) (width 0.05))
  (fp_line (start -1.36 -2.7) (end 6.36 -2.7) (layer F.SilkS) (width 0.12))
  (fp_line (start 6.36 -2.7) (end 6.36 1.2) (layer F.SilkS) (width 0.12))
  (fp_line (start -1.36 -2.7) (end -1.36 1.2) (layer F.SilkS) (width 0.12))
  (fp_line (start -1.25 -2.59) (end 6.25 -2.59) (layer F.Fab) (width 0.1))
  (fp_line (start -1.25 3.6) (end -1.25 -2.59) (layer F.Fab) (width 0.1))
  (fp_line (start 5.95 3.6) (end 6.25 3.6) (layer F.Fab) (width 0.1))
  (fp_line (start -0.95 3.6) (end -0.95 0.86) (layer F.Fab) (width 0.1))
  (fp_line (start 5.84 0.97) (end 5.84 1.2) (layer F.SilkS) (width 0.12))
  (fp_line (start 5.3 0.97) (end 5.84 0.97) (layer F.SilkS) (width 0.12))
  (fp_line (start -0.84 0.97) (end -0.3 0.97) (layer F.SilkS) (width 0.12))
  (fp_line (start 0.8 0.97) (end 4.2 0.97) (layer F.SilkS) (width 0.12))
  (pad "" thru_hole circle (at 6.01 2.49) (size 2.1 2.1) (drill 1.3) (layers *.Cu *.Mask))
  (pad 2 thru_hole circle (at 5 0) (size 1.75 1.75) (drill 0.99) (layers *.Cu *.Mask))
  (pad 1 thru_hole circle (at 0 0) (size 1.75 1.75) (drill 0.99) (layers *.Cu *.Mask))
  (pad "" thru_hole circle (at -1 2.49) (size 2.1 2.1) (drill 1.3) (layers *.Cu *.Mask))
  (pad "" np_thru_hole circle (at 2.5 -1.21) (size 1.2 1.2) (drill 1.2) (layers *.Cu *.Mask))
  (model ${KISYS3DMOD}/Buttons_Switches_THT.3dshapes/SW_Tactile_SPST_Angled_PTS645Vx39-2LFS.wrl
    (at (xyz 0 0 0))
    (scale (xyz 1 1 1))
    (rotate (xyz 0 0 0))
  )
  (model ${KIPRJMOD}/3d_models/mjtp1117.step
    (offset (xyz 2.5 0 0))
    (scale (xyz 1 1 1))
    (rotate (xyz 0 0 180))
  )
)
