0
SECTION
2
HEADER
9
$INSUNITS
70
4
9
$ACADVER
1
AC1014
9
$HANDSEED
5
FFFF
0
ENDSEC
0
SECTION
2
TABLES
0
TABLE
2
VPORT
5
8
100
AcDbSymbolTable
0
ENDTAB
0
TABLE
2
LTYPE
5
5
100
AcDbSymbolTable
0
LTYPE
5
14
100
AcDbSymbolTableRecord
100
AcDbLinetypeTableRecord
2
BYBLOCK
70
0
0
LTYPE
5
15
100
AcDbSymbolTableRecord
100
AcDbLinetypeTableRecord
2
BYLAYER
70
0
0
ENDTAB
0
TABLE
2
LAYER
5
2
100
AcDbSymbolTable
70
2
0
LAYER
5
50
100
AcDbSymbolTableRecord
100
AcDbLayerTableRecord
2
0
70
0
6
CONTINUOUS
0
ENDTAB
0
TABLE
2
STYLE
5
3
100
AcDbSymbolTable
70
1
0
STYLE
5
11
100
AcDbSymbolTableRecord
100
AcDbTextStyleTableRecord
2
STANDARD
70
0
0
ENDTAB
0
TABLE
2
VIEW
5
6
100
AcDbSymbolTable
70
0
0
ENDTAB
0
TABLE
2
UCS
5
7
100
AcDbSymbolTable
70
0
0
ENDTAB
0
TABLE
2
APPID
5
9
100
AcDbSymbolTable
70
2
0
APPID
5
12
100
AcDbSymbolTableRecord
100
AcDbRegAppTableRecord
2
ACAD
70
0
0
ENDTAB
0
TABLE
2
DIMSTYLE
5
A
100
AcDbSymbolTable
70
1
0
ENDTAB
0
TABLE
2
BLOCK_RECORD
5
1
100
AcDbSymbolTable
70
1
0
BLOCK_RECORD
5
1F
100
AcDbSymbolTableRecord
100
AcDbBlockTableRecord
2
*MODEL_SPACE
0
BLOCK_RECORD
5
1B
100
AcDbSymbolTableRecord
100
AcDbBlockTableRecord
2
*PAPER_SPACE
0
ENDTAB
0
ENDSEC
0
SECTION
2
BLOCKS
0
BLOCK
5
20
100
AcDbEntity
100
AcDbBlockBegin
2
*MODEL_SPACE
0
ENDBLK
5
21
100
AcDbEntity
100
AcDbBlockEnd
0
BLOCK
5
1C
100
AcDbEntity
100
AcDbBlockBegin
2
*PAPER_SPACE
0
ENDBLK
5
1D
100
AcDbEntity
100
AcDbBlockEnd
0
ENDSEC
0
SECTION
2
ENTITIES
0
LWPOLYLINE
5
100
100
AcDbEntity
8
0
100
AcDbPolyline
90
20
70
1
43
0.0
10
-75.549797774135598
20
202.33705778523733
42
-0.41421356238453721
10
-76.199797774106287
20
202.98705778523359
10
-76.199797774133032
20
203.2382079855698
42
0.40769549368619862
10
-77.049586326515794
20
204.06925010399493
10
-79.949586306151005
20
204.06925013403665
10
-79.949583352851562
20
217.86925011367151
10
-77.049583352851613
20
217.86924949305063
42
0.41421378006223947
10
-76.199583545321929
20
218.71924956851967
10
-76.199583677629178
20
218.96924907464017
42
-0.41426670962558321
10
-75.549466292170123
20
219.61924919326981
10
-70.549365094734213
20
219.61924917199701
42
-0.41421356238456131
10
-69.899365094763525
20
218.96924917200073
10
-69.89936509473678
20
218.71809897166452
42
0.40769549368619251
10
-69.049576542354004
20
217.88705685323941
10
-66.149576562718792
20
217.88705682319767
10
-66.14957951601825
20
204.08705684356278
10
-69.049579516018184
20
204.08705746418366
42
0.41421378006223331
10
-69.899579323547883
20
203.23705738871467
10
-69.899579191240647
20
202.98705788259414
42
-0.41426670962328993
10
-70.549696576694544
20
202.33705776396451
0
LWPOLYLINE
5
101
100
AcDbEntity
8
0
100
AcDbPolyline
90
4
70
1
43
0.0
10
-75.187538487862454
20
167.08763958083966
10
-75.187538487862454
20
153.28719677929317
10
-61.387095686315966
20
153.28719677929317
10
-61.387095686315966
20
167.08763958083966
0
LWPOLYLINE
5
102
100
AcDbEntity
8
0
100
AcDbPolyline
90
4
70
1
43
0.0
10
-80.437047239613065
20
180.27462141776195
10
-80.437047239613065
20
194.07506421930844
10
-94.237479275236197
20
194.07506421930844
10
-94.237479275236197
20
180.27462141776195
0
LWPOLYLINE
5
103
100
AcDbEntity
8
0
100
AcDbPolyline
90
4
70
1
43
0.0
10
-75.187538487862454
20
148.0376920647638
10
-75.187538487862454
20
134.23725094539287
10
-61.387095686315966
20
134.23725094539287
10
-61.387095686315966
20
148.0376920647638
0
LWPOLYLINE
5
104
100
AcDbEntity
8
0
100
AcDbPolyline
90
4
70
1
43
0.0
10
-37.087638072749094
20
205.982552300469
10
-37.087638072749094
20
192.1821094989225
10
-23.28719796268345
20
192.1821094989225
10
-23.28719796268345
20
205.982552300469
0
LWPOLYLINE
5
105
100
AcDbEntity
8
0
100
AcDbPolyline
90
4
70
1
43
0.0
10
-56.137586934565356
20
152.80017726160725
10
-56.137586934565356
20
138.99973647867139
10
-42.33714413301886
20
138.99973647867139
10
-42.33714413301886
20
152.80017726160725
0
LWPOLYLINE
5
106
100
AcDbEntity
8
0
100
AcDbPolyline
90
4
70
1
43
0.0
10
-80.437047239613065
20
175.02511804897301
10
-94.237479275236197
20
175.02511804897301
10
-94.237479275236197
20
161.22467793890738
10
-80.437047239613065
20
161.22467793890738
0
LWPOLYLINE
5
107
100
AcDbEntity
8
0
100
AcDbPolyline
90
4
70
1
43
0.0
10
-56.137586934565356
20
171.85012612342351
10
-56.137586934565356
20
158.04968332187701
10
-42.33714413301886
20
158.04968332187701
10
-42.33714413301886
20
171.85012612342351
0
LWPOLYLINE
5
108
100
AcDbEntity
8
0
100
AcDbPolyline
90
4
70
1
43
0.0
10
-99.486988026986793
20
179.78760190007603
10
-113.28743621149498
20
179.78760190007603
10
-113.28743621149498
20
165.98715909852953
10
-99.486988026986793
20
165.98715909852953
0
LWPOLYLINE
5
109
100
AcDbEntity
8
0
100
AcDbPolyline
90
4
70
1
43
0.0
10
-99.486988026986793
20
160.7376557297406
10
-113.28743621149498
20
160.7376557297406
10
-113.28743621149498
20
146.93721561967496
10
-99.486988026986793
20
146.93721561967496
0
LWPOLYLINE
5
110
100
AcDbEntity
8
0
100
AcDbPolyline
90
4
70
1
43
0.0
10
-80.437047239613065
20
142.17472638561026
10
-80.437047239613065
20
155.97517187863761
10
-94.237479275236197
20
155.97517187863761
10
-94.237479275236197
20
142.17472638561026
0
CIRCLE
5
111
100
AcDbEntity
8
0
100
AcDbCircle
10
-128.15240858301297
20
208.5938406386924
30
0
40
1.1000000000000119
210
0
220
0
230
1
0
LWPOLYLINE
5
112
100
AcDbEntity
8
0
100
AcDbPolyline
90
4
70
1
43
0.0
10
-4.2372507830427431
20
189.31258036820543
10
-18.037691902413702
20
189.31258036820543
10
-18.037691902413702
20
175.51213756665896
10
-4.2372507830427431
20
175.51213756665896
0
LWPOLYLINE
5
113
100
AcDbEntity
8
0
100
AcDbPolyline
90
4
70
1
43
0.0
10
-37.087638072749094
20
186.93260613013359
10
-37.087638072749094
20
173.13216065633048
10
-23.28719796268345
20
173.13216330936285
10
-23.28719796268345
20
186.93260613013359
0
LWPOLYLINE
5
114
100
AcDbEntity
8
0
100
AcDbPolyline
90
4
70
1
43
0.0
10
-99.486988026986793
20
185.03711065182665
10
-99.486988026986793
20
198.83755345337312
10
-113.28743621149498
20
198.83755345337312
10
-113.28743621149498
20
185.03711065182665
0
LWPOLYLINE
5
115
100
AcDbEntity
8
0
100
AcDbPolyline
90
4
70
1
43
0.0
10
-37.087638072749094
20
167.88265995979816
10
-37.087638072749094
20
154.08221446677084
10
-23.28719796268345
20
154.08221446677084
10
-23.28719796268345
20
167.88265995979816
0
CIRCLE
5
116
100
AcDbEntity
8
0
100
AcDbCircle
10
-86.942548999782645
20
199.08309638871617
30
0
40
1.1000000000000119
210
0
220
0
230
1
0
CIRCLE
5
117
100
AcDbEntity
8
0
100
AcDbCircle
10
-40.38244047212126
20
155.3610251110477
30
0
40
1.1000000000000032
210
0
220
0
230
1
0
CIRCLE
5
118
100
AcDbEntity
8
0
100
AcDbCircle
10
-96.467524305314384
20
158.60195222215071
30
0
40
1.0999999999999943
210
0
220
0
230
1
0
CIRCLE
5
119
100
AcDbEntity
8
0
100
AcDbCircle
10
-38.920673999902696
20
189.55812108318443
30
0
40
1.0999999999999985
210
0
220
0
230
1
0
LWPOLYLINE
5
120
100
AcDbEntity
8
0
100
AcDbPolyline
90
4
70
1
43
0.0
10
-127.37729221794426
20
216.4996234861834
10
-123.80450734914554
20
229.82936260258069
10
-137.13424113322208
20
233.40215807646885
10
-140.70703661414802
20
220.07241365400799
0
LWPOLYLINE
5
121
100
AcDbEntity
8
0
100
AcDbPolyline
90
4
70
1
43
0.0
10
-119.83228225070704
20
210.36699577186545
10
-106.08443017685781
20
209.16522008011361
10
-104.88264915598489
20
222.91308302985647
10
-118.63050122983415
20
224.11487463979967
0
LWPOLYLINE
5
122
100
AcDbEntity
8
0
100
AcDbPolyline
90
4
70
1
43
0.0
10
-85.199531090716079
20
208.84954605622676
10
-85.199531090716079
20
222.64999424073494
10
-98.999968509300871
20
222.64999424073494
10
-98.999968509300871
20
208.84954605622676
0
LWPOLYLINE
5
123
100
AcDbEntity
8
0
100
AcDbPolyline
90
20
70
1
43
0.0
10
-13.637468627892474
20
192.83676826759876
42
-0.41421356238455426
10
-14.287468627863166
20
193.48676826759498
10
-14.287468627889899
20
193.73791846793085
42
0.40769549368631292
10
-15.137257180272687
20
194.5689605863563
10
-18.037257159907909
20
194.56896061639807
10
-18.037254206608438
20
208.36896059603293
10
-15.137254206608501
20
208.36895997541205
42
0.41421378006223097
10
-14.287254399078799
20
209.21896005088104
10
-14.287254531386044
20
209.4689595570016
42
-0.41426670962564127
10
-13.637137145926969
20
210.1189596756312
10
-8.6370359484910875
20
210.11895965435841
42
-0.41421356238450968
10
-7.9870359485204068
20
209.46895965436221
10
-7.9870359484936682
20
209.21780945402631
42
0.40769549368633146
10
-7.1372473961108689
20
208.38676733560084
10
-4.2372474164756735
20
208.38676730555906
10
-4.2372503697751451
20
194.5867673259242
10
-7.1372503697750656
20
194.58676794654508
42
0.41421378006223175
10
-7.9872501773047606
20
193.7367678710761
10
-7.987250044997535
20
193.48676836495557
42
-0.4142667096233284
10
-8.6373674304514374
20
192.83676824632593
0
LWPOLYLINE
5
124
100
AcDbEntity
8
0
100
AcDbPolyline
90
4
70
1
43
0.0
10
-61.387095686315966
20
186.1375857511751
10
-75.187538487862454
20
186.1375857511751
10
-75.187538487862454
20
172.33715909851367
10
-61.387095686315966
20
172.33715909851367
0
LWPOLYLINE
5
125
100
AcDbEntity
8
0
100
AcDbPolyline
90
4
70
1
43
0.0
10
-56.137586934565356
20
190.90007498523974
10
-56.137586934565356
20
177.09963218369325
10
-42.33714413301886
20
177.09963218369325
10
-42.33714413301886
20
190.90007498523974
0
CIRCLE
5
126
100
AcDbEntity
8
0
100
AcDbCircle
10
-20.664575694392781
20
171.69891894434019
30
0
40
1.100000000000001
210
0
220
0
230
1
0
CIRCLE
5
127
100
AcDbEntity
8
0
100
AcDbCircle
10
-20.664575694392781
20
190.74886602762592
30
0
40
1.100000000000001
210
0
220
0
230
1
0
LWPOLYLINE
5
128
100
AcDbEntity
8
0
100
AcDbPolyline
90
20
70
1
43
0.0
10
-13.637468627892467
20
154.73676826759873
42
-0.4142135623845502
10
-14.287468627863166
20
155.38676826759496
10
-14.287468627889899
20
155.63791846793083
42
0.40769549368632507
10
-15.137257180272687
20
156.46896058635627
10
-18.037257159907909
20
156.46896061639808
10
-18.037254206608438
20
170.26896059603297
10
-15.137254206608501
20
170.26895997541203
42
0.41421378006223097
10
-14.287254399078799
20
171.11896005088107
10
-14.287254531386026
20
171.36895955700157
42
-0.41426670962332784
10
-13.637137145932122
20
172.01895967563121
10
-8.6370359484910875
20
172.01895965435835
42
-0.41421356238456025
10
-7.9870359485204068
20
171.3689596543621
10
-7.9870359484936682
20
171.11780945402631
42
0.40769549368634367
10
-7.1372473961108689
20
170.28676733560081
10
-4.2372474164756735
20
170.28676730555907
10
-4.2372503697751451
20
156.48676732592418
10
-7.1372503697750656
20
156.48676794654509
42
0.41421378006223175
10
-7.9872501773047606
20
155.63676787107607
10
-7.9872500449975439
20
155.38676836495554
42
-0.41426670962122319
10
-8.6373674304468278
20
154.73676824632594
0
LINE
5
129
100
AcDbEntity
8
0
100
AcDbLine
10
-55.588848200641323
20
204.07849719250959
30
0
11
-55.588848200641323
21
211.77477553145047
31
0
0
SPLINE
5
130
100
AcDbEntity
8
0
100
AcDbSpline
70
0
71
3
72
20
73
16
74
0
42
0.000000001
43
0.0000000001
44
0.0000000001
40
-2.1127063668888959
40
-2.1127063668888959
40
-2.1127063668888959
40
-2.1127063668888959
40
-1.9056019017814865
40
-1.9056019017814865
40
-1.9056019017814865
40
-1.6902397861585789
40
-1.6902397861585789
40
-1.6902397861585789
40
-1.2147418846088947
40
-1.2147418846088947
40
-1.2147418846088947
40
-0.54393202127250118
40
-0.54393202127250118
40
-0.54393202127250118
40
0
40
0
40
0
40
0
10
-55.588848200641323
20
211.77477553145047
30
0
10
-55.588848200641337
20
212.9811590827473
30
0
10
-55.789924048275175
20
214.14816989093677
30
0
10
-56.175512667965542
20
215.28860235809091
30
0
10
-56.576481914915753
20
216.47452518931857
30
0
10
-57.162107962373369
20
217.58730756980418
30
0
10
-57.856857450931727
20
218.62237411015519
30
0
10
-59.390823293301537
20
220.9077399054911
30
0
10
-61.546463190629481
20
222.94530670368766
30
0
10
-63.718193537343453
20
224.60988971321282
30
0
10
-66.781964472310477
20
226.95820199385108
30
0
10
-70.593641334495942
20
229.11241584025404
30
0
10
-74.416329181713991
20
230.41182032650596
30
0
10
-77.515989501812982
20
231.46545397036334
30
0
10
-79.959553900036809
20
231.73055645608571
30
0
10
-81.78261717247247
20
231.7247211895328
30
0
0
SPLINE
5
131
100
AcDbEntity
8
0
100
AcDbSpline
70
0
71
3
72
11
73
7
74
0
42
0.000000001
43
0.0000000001
44
0.0000000001
40
-4.7239444430870936
40
-4.7239444430870936
40
-4.7239444430870936
40
-4.7239444430870936
40
-2.5411912953377946
40
-2.5411912953377946
40
-2.5411912953377946
40
0
40
0
40
0
40
0
10
-81.78261717247247
20
231.7247211895328
30
0
10
-91.22548870623605
20
231.69449641716344
30
0
10
-100.78682107085103
20
232.16783657893242
30
0
10
-109.91519614394214
20
233.1031972944663
30
0
10
-120.54250438251066
20
234.19214977052405
30
0
10
-129.44028191091843
20
235.80177541017602
30
0
10
-137.61552576027444
20
237.99647947203817
30
0
0
ARC
5
132
100
AcDbEntity
8
0
100
AcDbCircle
10
-138.25920865211555
20
235.59876914110873
30
0
40
2.4826080029466326
210
0
220
-0
230
1
100
AcDbArc
50
74.972840075669453
51
165.00246855737004
0
LINE
5
133
100
AcDbEntity
8
0
100
AcDbLine
10
-140.65725152024149
20
236.24121205602421
30
0
11
-145.66319191346292
21
217.55556755128799
31
0
0
ARC
5
134
100
AcDbEntity
8
0
100
AcDbCircle
10
-143.72444951350803
20
217.03617261724185
30
0
40
2.007110657361876
210
0
220
0
230
1
100
AcDbArc
50
165.0024685730902
51
240.04132889705792
0
LINE
5
135
100
AcDbEntity
8
0
100
AcDbLine
10
-144.72675076716899
20
215.29724036214813
30
0
11
-132.55961352341885
21
208.2842374822751
31
0
0
ARC
5
136
100
AcDbEntity
8
0
100
AcDbCircle
10
-134.00780155677657
20
205.77171854303558
30
0
40
2.8999999999996189
210
0
220
-0
230
1
100
AcDbArc
50
25.732658727068774
51
60.041328897059941
0
ARC
5
137
100
AcDbEntity
8
0
100
AcDbCircle
10
-128.15240858301297
20
208.5938406386924
30
0
40
3.5999999999999681
210
0
220
0
230
1
100
AcDbArc
50
205.73265872707009
51
274.34999906704331
0
ARC
5
138
100
AcDbEntity
8
0
100
AcDbCircle
10
-127.65939079722361
20
202.11256503408401
30
0
40
2.8999999999997672
210
0
220
-0
230
1
100
AcDbArc
50
60.041328897056829
51
94.349999067044465
0
LINE
5
139
100
AcDbEntity
8
0
100
AcDbLine
10
-126.21120276386569
20
204.62508397332357
30
0
11
-121.45101018855709
21
201.88136180017761
31
0
0
ARC
5
140
100
AcDbEntity
8
0
100
AcDbCircle
10
-126.35254270504544
20
193.37749835475245
30
0
40
9.8153305858045492
210
0
220
0
230
1
100
AcDbArc
50
0
51
60.041328897055045
0
LINE
5
141
100
AcDbEntity
8
0
100
AcDbLine
10
-116.53721211924088
20
193.37749835475239
30
0
11
-116.53696550803801
21
145.10796610310024
31
0
0
ARC
5
142
100
AcDbEntity
8
0
100
AcDbCircle
10
-114.05396550803931
20
145.10796661400471
30
0
40
2.482999999998742
210
0
220
0
230
1
100
AcDbArc
50
180.00001176845754
51
270.00189756461998
0
SPLINE
5
143
100
AcDbEntity
8
0
100
AcDbSpline
70
0
71
3
72
32
73
28
74
0
42
0.000000001
43
0.0000000001
44
0.0000000001
40
-55.208684123723543
40
-55.208684123723543
40
-55.208684123723543
40
-55.208684123723543
40
-29.103509224088796
40
-29.103509224088796
40
-29.103509224088796
40
-27.29345733351926
40
-27.29345733351926
40
-27.29345733351926
40
-24.19141087324477
40
-24.19141087324477
40
-24.19141087324477
40
-17.086535623066347
40
-17.086535623066347
40
-17.086535623066347
40
-10.922071785901766
40
-10.922071785901766
40
-10.922071785901766
40
-8.269056176045158
40
-8.269056176045158
40
-8.269056176045158
40
-4.1595076979370136
40
-4.1595076979370136
40
-4.1595076979370136
40
-2.2488681553970498
40
-2.2488681553970498
40
-2.2488681553970498
40
0
40
0
40
0
40
0
10
-114.05388327417539
20
142.62496662251039
30
0
10
-110.20097303327829
20
142.62486869469953
30
0
10
-105.43193491313508
20
140.94154919225571
30
0
10
-101.240090848853
20
139.24622359080112
30
0
10
-100.94944942206786
20
139.12867822315002
30
0
10
-98.072041334320119
20
137.96374096528811
30
0
10
-97.587459337307948
20
137.76482265172336
30
0
10
-96.756923292129059
20
137.42389205487831
30
0
10
-95.703054128883565
20
136.94474377662416
30
0
10
-94.105203186625744
20
136.21054746998973
30
0
10
-90.445557201853163
20
134.52897724679178
30
0
10
-86.00228677666756
20
132.45734308393523
30
0
10
-82.381047742137966
20
131.10843351101653
30
0
10
-79.243017652766795
20
129.93951900763869
30
0
10
-74.745147347507498
20
128.35851498188606
30
0
10
-63.75222325833267
20
128.80655829464732
30
0
10
-59.020840833041142
20
128.99939727348237
30
0
10
-52.182546887039159
20
129.62674368294302
30
0
10
-45.764069225785704
20
131.67657910954492
30
0
10
-35.821787825121575
20
134.85179318863339
30
0
10
-31.438424441567598
20
139.99162940484479
30
0
10
-26.147248910195373
20
144.34805195227372
30
0
10
-23.687238912261538
20
146.37347011471374
30
0
10
-21.077210977408207
20
148.19294195866269
30
0
10
-17.606372535836886
20
149.56456775666194
30
0
10
-13.521073802081593
20
151.17901948931467
30
0
10
-8.307598274426768
20
152.1499383661926
30
0
10
-0.8200177954352329
20
152.1499383661926
30
0
0
ARC
5
144
100
AcDbEntity
8
0
100
AcDbCircle
10
-0.82002039492634826
20
153.04495739941069
30
0
40
0.89501903322186227
210
-0
220
0
230
1
100
AcDbArc
50
-89.999833590276467
51
0
0
LINE
5
145
100
AcDbEntity
8
0
100
AcDbLine
10
0.074998638295509817
20
153.04495739941069
30
0
11
0.074998638295991071
21
211.78229591041293
31
0
0
ARC
5
146
100
AcDbEntity
8
0
100
AcDbCircle
10
-0.81748503009098739
20
211.78229591041293
30
0
40
0.89248366838697846
210
0
220
-0
230
1
100
AcDbArc
50
0
51
89.900376415992369
0
LINE
5
147
100
AcDbEntity
8
0
100
AcDbLine
10
-0.81593321636810323
20
212.67477822968414
30
0
11
-45.290413074250736
21
212.67477553145051
31
0
0
ARC
5
148
100
AcDbEntity
8
0
100
AcDbCircle
10
-45.290413074250722
20
211.77477553145047
30
0
40
0.90000000000003411
210
0
220
0
230
1
100
AcDbArc
50
90.000000000000909
51
180
0
LINE
5
149
100
AcDbEntity
8
0
100
AcDbLine
10
-46.190413074250721
20
211.77477553145047
30
0
11
-46.190413074250721
21
204.07849719250959
31
0
0
ARC
5
150
100
AcDbEntity
8
0
100
AcDbCircle
10
-46.890413074250731
20
204.07849719250959
30
0
40
0.70000000000000284
210
0
220
0
230
1
100
AcDbArc
50
-90
51
0
0
LINE
5
151
100
AcDbEntity
8
0
100
AcDbLine
10
-46.890413074250731
20
203.37849719250957
30
0
11
-54.88884820064132
21
203.37849719250957
31
0
0
ARC
5
152
100
AcDbEntity
8
0
100
AcDbCircle
10
-54.88884820064132
20
204.07849719250959
30
0
40
0.70000000000000284
210
0
220
0
230
1
100
AcDbArc
50
180
51
270
0
ENDSEC
0
SECTION
2
OBJECTS
0
DICTIONARY
5
C
100
AcDbDictionary
3
ACAD_GROUP
350
D
3
ACAD_MLINESTYLE
350
17
0
DICTIONARY
5
D
100
AcDbDictionary
0
DICTIONARY
5
1A
330
C
100
AcDbDictionary
0
DICTIONARY
5
17
100
AcDbDictionary
0
ENDSEC
0
EOF
