0
SECTION
2
HEADER
9
$INSUNITS
70
4
9
$ACADVER
1
AC1014
9
$HANDSEED
5
FFFF
0
ENDSEC
0
SECTION
2
TABLES
0
TABLE
2
VPORT
5
8
100
AcDbSymbolTable
0
ENDTAB
0
TABLE
2
LTYPE
5
5
100
AcDbSymbolTable
0
LTYPE
5
14
100
AcDbSymbolTableRecord
100
AcDbLinetypeTableRecord
2
BYBLOCK
70
0
0
LTYPE
5
15
100
AcDbSymbolTableRecord
100
AcDbLinetypeTableRecord
2
BYLAYER
70
0
0
ENDTAB
0
TABLE
2
LAYER
5
2
100
AcDbSymbolTable
70
2
0
LAYER
5
50
100
AcDbSymbolTableRecord
100
AcDbLayerTableRecord
2
0
70
0
6
CONTINUOUS
0
ENDTAB
0
TABLE
2
STYLE
5
3
100
AcDbSymbolTable
70
1
0
STYLE
5
11
100
AcDbSymbolTableRecord
100
AcDbTextStyleTableRecord
2
STANDARD
70
0
0
ENDTAB
0
TABLE
2
VIEW
5
6
100
AcDbSymbolTable
70
0
0
ENDTAB
0
TABLE
2
UCS
5
7
100
AcDbSymbolTable
70
0
0
ENDTAB
0
TABLE
2
APPID
5
9
100
AcDbSymbolTable
70
2
0
APPID
5
12
100
AcDbSymbolTableRecord
100
AcDbRegAppTableRecord
2
ACAD
70
0
0
ENDTAB
0
TABLE
2
DIMSTYLE
5
A
100
AcDbSymbolTable
70
1
0
ENDTAB
0
TABLE
2
BLOCK_RECORD
5
1
100
AcDbSymbolTable
70
1
0
BLOCK_RECORD
5
1F
100
AcDbSymbolTableRecord
100
AcDbBlockTableRecord
2
*MODEL_SPACE
0
BLOCK_RECORD
5
1B
100
AcDbSymbolTableRecord
100
AcDbBlockTableRecord
2
*PAPER_SPACE
0
ENDTAB
0
ENDSEC
0
SECTION
2
BLOCKS
0
BLOCK
5
20
100
AcDbEntity
100
AcDbBlockBegin
2
*MODEL_SPACE
0
ENDBLK
5
21
100
AcDbEntity
100
AcDbBlockEnd
0
BLOCK
5
1C
100
AcDbEntity
100
AcDbBlockBegin
2
*PAPER_SPACE
0
ENDBLK
5
1D
100
AcDbEntity
100
AcDbBlockEnd
0
ENDSEC
0
SECTION
2
ENTITIES
0
CIRCLE
5
100
100
AcDbEntity
8
0
100
AcDbCircle
10
-128.15240858301297
20
78.593840638692399
30
0
40
1.2000000000000099
210
0
220
-0
230
1
0
CIRCLE
5
101
100
AcDbEntity
8
0
100
AcDbCircle
10
-96.467524305314384
20
28.601952222150722
30
0
40
1.1999999999999922
210
0
220
-0
230
1
0
CIRCLE
5
102
100
AcDbEntity
8
0
100
AcDbCircle
10
-86.942548999782645
20
69.083096388716186
30
0
40
1.2000000000000099
210
0
220
-0
230
1
0
CIRCLE
5
103
100
AcDbEntity
8
0
100
AcDbCircle
10
-40.38244047212126
20
25.361025111047709
30
0
40
1.2000000000000011
210
0
220
-0
230
1
0
CIRCLE
5
104
100
AcDbEntity
8
0
100
AcDbCircle
10
-38.920673999902696
20
59.558121083184439
30
0
40
1.1999999999999966
210
0
220
-0
230
1
0
CIRCLE
5
105
100
AcDbEntity
8
0
100
AcDbCircle
10
-20.664575694392781
20
41.698918944340207
30
0
40
1.2000000000000011
210
0
220
-0
230
1
0
CIRCLE
5
106
100
AcDbEntity
8
0
100
AcDbCircle
10
-20.664575694392781
20
60.748866027625922
30
0
40
1.2000000000000011
210
0
220
-0
230
1
0
LWPOLYLINE
5
107
100
AcDbEntity
8
0
100
AcDbPolyline
90
20
70
1
43
0.0
10
-4.1372473950749544
20
40.386767304523133
10
-7.1372473950749615
20
40.386767335600851
42
-0.40727555242788582
10
-7.8870359484937858
20
41.118959654358221
10
-7.8870359485204062
20
41.368959654358228
42
0.4142135623845829
10
-8.6370359484911674
20
42.11895965435837
10
-13.637035948491175
20
42.118959654354583
42
0.41429916578558973
10
-14.387254531386002
20
41.368959504078589
10
-14.387254399078785
20
41.118959997958051
42
-0.41421378006222859
10
-15.13725418520778
20
40.368959975412047
10
-18.137254185207716
20
40.368960617433665
10
-18.13725718130863
20
26.368960617433999
10
-15.137257181308621
20
26.368960586356295
42
-0.40727555242789232
10
-14.387468627889781
20
25.636768267598899
10
-14.387468627863168
20
25.386768267598896
42
0.41421356238458812
10
-13.6374686278924
20
24.636768267599241
10
-8.6374686278923996
20
24.636768267602562
42
0.41429916578558795
10
-7.8872500449975647
20
25.386768417878542
10
-7.8872501773047743
20
25.636767923999084
42
-0.41421378006222953
10
-7.1372503911757867
20
26.386767946545078
10
-4.1372503911758685
20
26.38676730452346
0
LWPOLYLINE
5
108
100
AcDbEntity
8
0
100
AcDbPolyline
90
20
70
1
43
0.0
10
-4.1372473950749544
20
78.486767304523141
10
-7.1372473950749615
20
78.486767335600859
42
-0.40727555242788582
10
-7.8870359484937858
20
79.21895965435823
10
-7.8870359485204062
20
79.46895965435823
42
0.41421356238456553
10
-8.6370359484911674
20
80.218959654358386
10
-13.637035948491175
20
80.218959654354592
42
0.41429916578558973
10
-14.38725453138602
20
79.468959504078597
10
-14.387254399078785
20
79.218959997958052
42
-0.41421378006222859
10
-15.13725418520778
20
78.468959975412048
10
-18.137254185207716
20
78.468960617433666
10
-18.13725718130863
20
64.468960617434007
10
-15.137257181308621
20
64.468960586356289
42
-0.40727555242789232
10
-14.387468627889781
20
63.736768267598904
10
-14.387468627863168
20
63.486768267598904
42
0.41421356238458551
10
-13.6374686278924
20
62.736768267598755
10
-8.6374686278923996
20
62.736768267602571
42
0.41429916578559273
10
-7.8872500449975647
20
63.486768417878551
10
-7.8872501773047743
20
63.736767923999082
42
-0.41421378006222953
10
-7.1372503911757867
20
64.486767946545086
10
-4.1372503911758685
20
64.486767304523468
0
LWPOLYLINE
5
109
100
AcDbEntity
8
0
100
AcDbPolyline
90
20
70
1
43
0.0
10
-80.049583331450833
20
87.969250135072258
10
-80.049586327551737
20
73.969250135072585
10
-77.049586327551737
20
73.969250103994881
42
-0.40727555242789154
10
-76.299797774132898
20
73.237057785237482
10
-76.299797774106281
20
72.987057785237482
42
0.41421356238457252
10
-75.549797774135513
20
72.23705778523734
10
-70.549797774135513
20
72.237057785241149
42
0.41429916578560189
10
-69.799579191240667
20
72.987057935517129
10
-69.799579323547903
20
73.237057441637674
42
-0.4142137800622312
10
-69.049579537418907
20
73.987057464183664
10
-66.049579537418978
20
73.987056822162046
10
-66.049576541318075
20
87.987056822161733
10
-69.049576541318075
20
87.987056853239437
42
-0.4072755524278846
10
-69.799365094736913
20
88.719249171996807
10
-69.799365094763516
20
88.969249171996822
42
0.41421356238457946
10
-70.549365094734299
20
89.719249171996978
10
-75.549365094734299
20
89.71924917199317
42
0.41429916578558451
10
-76.299583677629116
20
88.969249021717189
10
-76.299583545321909
20
88.719249515596658
42
-0.41421378006223475
10
-77.04958333145089
20
87.96924949305064
0
LWPOLYLINE
5
110
100
AcDbEntity
8
0
100
AcDbPolyline
90
4
70
1
43
0.0
10
-137.20494236581371
20
103.52463803275442
10
-140.82951656081875
20
90.001712380390231
10
-127.30659090845455
20
86.377143568346895
10
-123.68202747937289
20
99.900063837749386
0
LWPOLYLINE
5
111
100
AcDbEntity
8
0
100
AcDbPolyline
90
4
70
1
43
0.0
10
-119.94061071777199
20
80.27608401500386
10
-105.99351844960482
20
79.056891637280671
10
-104.77432068891994
20
93.003994671371245
10
-118.72141295708713
20
94.223203197979501
0
LWPOLYLINE
5
112
100
AcDbEntity
8
0
100
AcDbPolyline
90
4
70
1
43
0.0
10
-99.099968509300865
20
78.749546056226734
10
-85.099531090716084
20
78.749546056226734
10
-85.099531090716084
20
92.749994240734921
10
-99.099968509300865
20
92.749994240734921
0
LWPOLYLINE
5
113
100
AcDbEntity
8
0
100
AcDbPolyline
90
4
70
1
43
0.0
10
-113.38743621149497
20
54.937110651826643
10
-99.386988026986799
20
54.937110651826643
10
-99.386988026986799
20
68.937553453373127
10
-113.38743621149497
20
68.937553453373127
0
LWPOLYLINE
5
114
100
AcDbEntity
8
0
100
AcDbPolyline
90
4
70
1
43
0.0
10
-113.38743621149497
20
35.887159098529537
10
-99.386988026986799
20
35.887159098529537
10
-99.386988026986799
20
49.887601900076028
10
-113.38743621149497
20
49.887601900076028
0
LWPOLYLINE
5
115
100
AcDbEntity
8
0
100
AcDbPolyline
90
4
70
1
43
0.0
10
-113.38743621149497
20
30.837655729740618
10
-113.38743621149497
20
16.837215619674978
10
-99.386988026986799
20
16.837215619674978
10
-99.386988026986799
20
30.837655729740618
0
LWPOLYLINE
5
116
100
AcDbEntity
8
0
100
AcDbPolyline
90
4
70
1
43
0.0
10
-94.337479275236191
20
12.074726385610282
10
-80.337047239613071
20
12.074726385610282
10
-80.337047239613071
20
26.075171878637615
10
-94.337479275236191
20
26.075171878637615
0
LWPOLYLINE
5
117
100
AcDbEntity
8
0
100
AcDbPolyline
90
4
70
1
43
0.0
10
-94.337479275236191
20
31.124677938907375
10
-80.337047239613071
20
31.124677938907375
10
-80.337047239613071
20
45.125118048973015
10
-94.337479275236191
20
45.125118048973015
0
LWPOLYLINE
5
118
100
AcDbEntity
8
0
100
AcDbPolyline
90
4
70
1
43
0.0
10
-80.337047239613071
20
50.174621417761934
10
-80.337047239613071
20
64.175064219308425
10
-94.337479275236191
20
64.175064219308425
10
-94.337479275236191
20
50.174621417761934
0
LWPOLYLINE
5
119
100
AcDbEntity
8
0
100
AcDbPolyline
90
4
70
1
43
0.0
10
-75.287538487862463
20
56.237585751175061
10
-75.287538487862463
20
42.237159098513658
10
-61.287095686315965
20
42.237159098513658
10
-61.287095686315965
20
56.237585751175061
0
LWPOLYLINE
5
120
100
AcDbEntity
8
0
100
AcDbPolyline
90
4
70
1
43
0.0
10
-75.287538487862463
20
23.18719677929316
10
-61.287095686315965
20
23.187196779293167
10
-61.287095686315965
20
37.187639580839658
10
-75.287538487862463
20
37.187639580839658
0
LWPOLYLINE
5
121
100
AcDbEntity
8
0
100
AcDbPolyline
90
4
70
1
43
0.0
10
-75.287538487862463
20
18.137692064763826
10
-75.287538487862463
20
4.1372509453928608
10
-61.287095686315965
20
4.1372509453928608
10
-61.287095686315965
20
18.137692064763826
0
LWPOLYLINE
5
122
100
AcDbEntity
8
0
100
AcDbPolyline
90
4
70
1
43
0.0
10
-56.237586934565357
20
8.8997364786713984
10
-42.237144133018859
20
8.8997364786713984
10
-42.237144133018859
20
22.90017726160724
10
-56.237586934565357
20
22.90017726160724
0
LWPOLYLINE
5
123
100
AcDbEntity
8
0
100
AcDbPolyline
90
4
70
1
43
0.0
10
-56.237586934565357
20
46.999632183693265
10
-42.237144133018859
20
46.999632183693265
10
-42.237144133018859
20
61.000074985239756
10
-56.237586934565357
20
61.000074985239756
0
LWPOLYLINE
5
124
100
AcDbEntity
8
0
100
AcDbPolyline
90
4
70
1
43
0.0
10
-56.237586934565357
20
41.950126123423502
10
-56.237586934565357
20
27.949683321877011
10
-42.237144133018859
20
27.949683321877011
10
-42.237144133018859
20
41.950126123423502
0
LWPOLYLINE
5
125
100
AcDbEntity
8
0
100
AcDbPolyline
90
4
70
1
43
0.0
10
-37.187638072749095
20
23.982214466770834
10
-23.187197962683452
20
23.982214466770834
10
-23.187197962683452
20
37.98265995979817
10
-37.187638072749095
20
37.98265995979817
0
LWPOLYLINE
5
126
100
AcDbEntity
8
0
100
AcDbPolyline
90
4
70
1
43
0.0
10
-23.187197962683452
20
43.032163328587096
10
-23.187197962683452
20
57.032606130133573
10
-37.187638072749095
20
57.032606130133573
10
-37.187638072749095
20
43.032160637106244
0
LWPOLYLINE
5
127
100
AcDbEntity
8
0
100
AcDbPolyline
90
4
70
1
43
0.0
10
-18.1376919024137
20
45.412137566658934
10
-4.1372507830427452
20
45.412137566658942
10
-4.1372507830427452
20
59.412580368205425
10
-18.1376919024137
20
59.412580368205425
0
LWPOLYLINE
5
128
100
AcDbEntity
8
0
100
AcDbPolyline
90
4
70
1
43
0.0
10
-37.187638072749095
20
62.082109498922485
10
-23.187197962683452
20
62.082109498922492
10
-23.187197962683452
20
76.08255230046899
10
-37.187638072749095
20
76.08255230046899
0
ARC
5
129
100
AcDbEntity
8
0
100
AcDbCircle
10
-138.25920865211555
20
105.59876914110873
30
0
40
2.3826080029466432
210
0
220
-0
230
1
100
AcDbArc
50
74.972840075669623
51
165.00246855736953
0
LINE
5
130
100
AcDbEntity
8
0
100
AcDbLine
10
-140.56065782259449
20
106.21533431317667
30
0
11
-145.56659821567342
21
87.529689808972378
31
0
0
ARC
5
131
100
AcDbEntity
8
0
100
AcDbCircle
10
-143.72444951350803
20
87.036172617241846
30
0
40
1.9071106573618755
210
0
220
0
230
1
100
AcDbArc
50
165.00246855736947
51
240.04132889705789
0
LINE
5
132
100
AcDbEntity
8
0
100
AcDbLine
10
-144.67681324877734
20
85.383878946259856
30
0
11
-132.50967600502719
21
78.370876066386842
31
0
0
ARC
5
133
100
AcDbEntity
8
0
100
AcDbCircle
10
-134.00780155677683
20
75.771718543035405
30
0
40
2.9999999999999183
210
0
220
-0
230
1
100
AcDbArc
50
25.732658727069637
51
60.041328897057426
0
ARC
5
134
100
AcDbEntity
8
0
100
AcDbCircle
10
-128.15240858301297
20
78.593840638692399
30
0
40
3.4999999999999742
210
0
220
0
230
1
100
AcDbArc
50
205.73265872707009
51
274.34999906704326
0
ARC
5
135
100
AcDbEntity
8
0
100
AcDbCircle
10
-127.65939079722365
20
72.112565034083758
30
0
40
3.0000000000000036
210
0
220
-0
230
1
100
AcDbArc
50
60.041328897058008
51
94.349999067043328
0
LINE
5
136
100
AcDbEntity
8
0
100
AcDbLine
10
-126.161265245474
20
74.71172255743528
30
0
11
-121.40107267016543
21
71.968000384289311
31
0
0
ARC
5
137
100
AcDbEntity
8
0
100
AcDbCircle
10
-126.35254270504541
20
63.377498354752476
30
0
40
9.9153305858045293
210
0
220
0
230
1
100
AcDbArc
50
0
51
60.04132889705506
0
LINE
5
138
100
AcDbEntity
8
0
100
AcDbLine
10
-116.43721211924088
20
63.377498354752447
30
0
11
-116.43696550803931
21
15.107966614004713
31
0
0
ARC
5
139
100
AcDbEntity
8
0
100
AcDbCircle
10
-114.05396550803931
20
15.107966614004713
30
0
40
2.3829999999999885
210
0
220
0
230
1
100
AcDbArc
50
180
51
269.9940705912486
0
SPLINE
5
140
100
AcDbEntity
8
0
100
AcDbSpline
70
0
71
3
72
24
73
20
74
0
42
0.000000001
43
0.0000000001
44
0.0000000001
40
-55.209426944218542
40
-55.209426944218542
40
-55.209426944218542
40
-55.209426944218542
40
-29.103509224088796
40
-29.103509224088796
40
-27.29345733351926
40
-27.29345733351926
40
-24.19141087324477
40
-24.19141087324477
40
-17.086535623066347
40
-17.086535623066347
40
-10.922071785901766
40
-10.922071785901766
40
-8.269056176045158
40
-8.269056176045158
40
-4.1595076979370136
40
-4.1595076979370136
40
-2.2488681553970498
40
-2.2488681553970498
40
0
40
0
40
0
40
0
10
-114.05421211924086
20
12.724966626765337
30
0
10
-110.17223132526502
20
12.72496447603757
30
0
10
-105.39761994400354
20
11.035539809428048
30
0
10
-100.91173610660238
20
9.2212944324354709
30
0
10
-98.035827448721165
20
8.0569728084268455
30
0
10
-96.715996373889567
20
7.5151892233687914
30
0
10
-95.661459664873689
20
7.0356829361481559
30
0
10
-90.403398355534193
20
4.6196570783672612
30
0
10
-85.961063762180444
20
2.5487000371657142
30
0
10
-79.209694413567618
20
0.033818622871937681
30
0
10
-74.738579453227018
20
-1.5411343037030478
30
0
10
-59.029822854460789
20
-0.90088578667723329
30
0
10
-52.198984812879729
20
-0.27353011677874683
30
0
10
-35.873866476815394
20
4.9401369978931431
30
0
10
-31.510836281078085
20
10.061543209519357
30
0
10
-23.746686502714542
20
16.454057870114323
30
0
10
-21.126149535970718
20
18.281127566506619
30
0
10
-13.54352299768556
20
21.277673315203963
30
0
10
-8.3162449800920655
20
22.249938366192616
30
0
10
-0.8200177954352329
20
22.249938366192616
30
0
0
ARC
5
141
100
AcDbEntity
8
0
100
AcDbCircle
10
-0.82002039492634826
20
23.044957399410698
30
0
40
0.79501903322233491
210
-0
220
0
230
1
100
AcDbArc
50
270.00018734126314
51
360
0
LINE
5
142
100
AcDbEntity
8
0
100
AcDbLine
10
-0.025001361704013299
20
23.044957399410695
30
0
11
-0.025001361704006797
21
81.782295910412955
31
0
0
ARC
5
143
100
AcDbEntity
8
0
100
AcDbCircle
10
-0.81748503009098739
20
81.782295910412955
30
0
40
0.79248366838698059
210
0
220
-0
230
1
100
AcDbArc
50
0
51
90.183116722220475
0
LINE
5
144
100
AcDbEntity
8
0
100
AcDbLine
10
-0.82001779543523545
20
82.574775531450484
30
0
11
-45.290413074250736
21
82.574775531450484
31
0
0
ARC
5
145
100
AcDbEntity
8
0
100
AcDbCircle
10
-45.290413074250722
20
81.774775531450473
30
0
40
0.80000000000000071
210
0
220
0
230
1
100
AcDbArc
50
90.000000000001009
51
180
0
LINE
5
146
100
AcDbEntity
8
0
100
AcDbLine
10
-46.090413074250726
20
81.774775531450473
30
0
11
-46.090413074250719
21
74.078497192509587
31
0
0
ARC
5
147
100
AcDbEntity
8
0
100
AcDbCircle
10
-46.890413074250716
20
74.078497192509573
30
0
40
0.79999999999999183
210
0
220
0
230
1
100
AcDbArc
50
-90.000000000000512
51
0
0
LINE
5
148
100
AcDbEntity
8
0
100
AcDbLine
10
-46.890413074250723
20
73.278497192509576
30
0
11
-54.88884820064132
21
73.278497192509576
31
0
0
ARC
5
149
100
AcDbEntity
8
0
100
AcDbCircle
10
-54.888848200641327
20
74.078497192509573
30
0
40
0.79999999999999183
210
0
220
0
230
1
100
AcDbArc
50
180
51
270.00000000000051
0
LINE
5
150
100
AcDbEntity
8
0
100
AcDbLine
10
-55.688848200641317
20
74.078497192509587
30
0
11
-55.688848200641317
21
81.774775531450473
31
0
0
SPLINE
5
151
100
AcDbEntity
8
0
100
AcDbSpline
70
0
71
3
72
16
73
12
74
0
42
0.000000001
43
0.0000000001
44
0.0000000001
40
-2.1127063668888959
40
-2.1127063668888959
40
-2.1127063668888959
40
-2.1127063668888959
40
-1.9056019017814865
40
-1.9056019017814865
40
-1.6902397861585789
40
-1.6902397861585789
40
-1.2147418846088947
40
-1.2147418846088947
40
-0.54393202127250118
40
-0.54393202127250118
40
0
40
0
40
0
40
0
10
-55.688848200641317
20
81.774775531450473
30
0
10
-55.688848200641338
20
82.970056761399391
30
0
10
-55.887904145382031
20
84.125747729321176
30
0
10
-56.667829390168023
20
86.43248611755817
30
0
10
-57.249130999002027
20
87.537524890491426
30
0
10
-59.465009601305717
20
90.838832536623912
30
0
10
-61.61322324633872
20
92.870481239949143
30
0
10
-66.83444070427791
20
96.872428296899528
30
0
10
-70.638545311463389
20
99.022060195774074
30
0
10
-77.537857740577508
20
101.36726803924702
30
0
10
-79.969199643923446
20
101.63052506970318
30
0
10
-81.782297093803251
20
101.62472170178589
30
0
0
SPLINE
5
152
100
AcDbEntity
8
0
100
AcDbSpline
70
0
71
3
72
10
73
6
74
0
42
0.000000001
43
0.0000000001
44
0.0000000001
40
-4.7239444430870936
40
-4.7239444430870936
40
-4.7239444430870936
40
-4.7239444430870936
40
-2.5411912953377946
40
-2.5411912953377946
40
0
40
0
40
0
40
0
10
-81.782297093803251
20
101.62472170178589
30
0
10
-91.228726272969482
20
101.59448554209413
30
0
10
-100.79337383122164
20
102.06798441572936
30
0
10
-120.55700801055428
20
104.0931123119334
30
0
10
-129.46048594228844
20
105.70365854930216
30
0
10
-137.6414534496671
20
107.89989916906309
30
0
0
ENDSEC
0
SECTION
2
OBJECTS
0
DICTIONARY
5
C
100
AcDbDictionary
3
ACAD_GROUP
350
D
3
ACAD_MLINESTYLE
350
17
0
DICTIONARY
5
D
100
AcDbDictionary
0
DICTIONARY
5
1A
330
C
100
AcDbDictionary
0
DICTIONARY
5
17
100
AcDbDictionary
0
ENDSEC
0
EOF
