ISO-10303-21;
HEADER;
/* Generated by software containing ST-Developer
 * from STEP Tools, Inc. (www.steptools.com) 
 */

FILE_DESCRIPTION(
/* description */ (''),
/* implementation_level */ '2;1');

FILE_NAME(
/* name */ 
'/Users/adamnaldal/Tinker/dumbo-keeb/dumbo_pcb/3d_models/Trrs_pj-320A.
step',
/* time_stamp */ '2020-05-15T10:27:10+02:00',
/* author */ (''),
/* organization */ (''),
/* preprocessor_version */ 'ST-DEVELOPER v18.1',
/* originating_system */ 'Autodesk Translation Framework v9.3.0.1241',
/* authorisation */ '');

FILE_SCHEMA (('AUTOMOTIVE_DESIGN { 1 0 10303 214 3 1 1 }'));
ENDSEC;

DATA;
#10=MECHANICAL_DESIGN_GEOMETRIC_PRESENTATION_REPRESENTATION('',(#23,#24,
#25,#26,#27),#1419);
#11=ITEM_DEFINED_TRANSFORMATION($,$,#844,#928);
#12=ITEM_DEFINED_TRANSFORMATION($,$,#879,#929);
#13=(
REPRESENTATION_RELATIONSHIP($,$,#1433,#1432)
REPRESENTATION_RELATIONSHIP_WITH_TRANSFORMATION(#11)
SHAPE_REPRESENTATION_RELATIONSHIP()
);
#14=(
REPRESENTATION_RELATIONSHIP($,$,#1434,#1432)
REPRESENTATION_RELATIONSHIP_WITH_TRANSFORMATION(#12)
SHAPE_REPRESENTATION_RELATIONSHIP()
);
#15=CONTEXT_DEPENDENT_SHAPE_REPRESENTATION(#13,#1430);
#16=CONTEXT_DEPENDENT_SHAPE_REPRESENTATION(#14,#1431);
#17=NEXT_ASSEMBLY_USAGE_OCCURRENCE('body:1','body:1','body:1',#1436,#1437,
'body:1');
#18=NEXT_ASSEMBLY_USAGE_OCCURRENCE('legs:1','legs:1','legs:1',#1436,#1438,
'legs:1');
#19=SHAPE_REPRESENTATION_RELATIONSHIP('SRR','None',#1433,#21);
#20=SHAPE_REPRESENTATION_RELATIONSHIP('SRR','None',#1434,#22);
#21=ADVANCED_BREP_SHAPE_REPRESENTATION('',(#28),#1417);
#22=ADVANCED_BREP_SHAPE_REPRESENTATION('',(#29,#30,#31,#32),#1418);
#23=STYLED_ITEM('',(#1452),#28);
#24=STYLED_ITEM('',(#1453),#29);
#25=STYLED_ITEM('',(#1453),#30);
#26=STYLED_ITEM('',(#1453),#31);
#27=STYLED_ITEM('',(#1453),#32);
#28=MANIFOLD_SOLID_BREP('Body1',#815);
#29=MANIFOLD_SOLID_BREP('Body1',#816);
#30=MANIFOLD_SOLID_BREP('Body2',#817);
#31=MANIFOLD_SOLID_BREP('Body3',#818);
#32=MANIFOLD_SOLID_BREP('Body4',#819);
#33=TOROIDAL_SURFACE('',#852,0.25,0.15);
#34=TOROIDAL_SURFACE('',#860,0.25,0.15);
#35=CYLINDRICAL_SURFACE('',#850,1.8);
#36=CYLINDRICAL_SURFACE('',#857,0.4);
#37=CYLINDRICAL_SURFACE('',#865,0.4);
#38=CYLINDRICAL_SURFACE('',#868,2.5);
#39=CYLINDRICAL_SURFACE('',#880,0.2);
#40=CYLINDRICAL_SURFACE('',#886,0.2);
#41=CYLINDRICAL_SURFACE('',#892,0.2);
#42=CYLINDRICAL_SURFACE('',#898,0.2);
#43=CYLINDRICAL_SURFACE('',#904,0.2);
#44=CYLINDRICAL_SURFACE('',#910,0.2);
#45=CYLINDRICAL_SURFACE('',#916,0.2);
#46=CYLINDRICAL_SURFACE('',#922,0.2);
#47=FACE_BOUND('',#136,.T.);
#48=FACE_BOUND('',#149,.T.);
#49=FACE_BOUND('',#153,.T.);
#50=FACE_BOUND('',#154,.T.);
#51=PLANE('',#848);
#52=PLANE('',#859);
#53=PLANE('',#867);
#54=PLANE('',#872);
#55=PLANE('',#873);
#56=PLANE('',#874);
#57=PLANE('',#875);
#58=PLANE('',#876);
#59=PLANE('',#877);
#60=PLANE('',#878);
#61=PLANE('',#883);
#62=PLANE('',#885);
#63=PLANE('',#888);
#64=PLANE('',#889);
#65=PLANE('',#890);
#66=PLANE('',#891);
#67=PLANE('',#895);
#68=PLANE('',#897);
#69=PLANE('',#900);
#70=PLANE('',#901);
#71=PLANE('',#902);
#72=PLANE('',#903);
#73=PLANE('',#907);
#74=PLANE('',#908);
#75=PLANE('',#912);
#76=PLANE('',#913);
#77=PLANE('',#914);
#78=PLANE('',#915);
#79=PLANE('',#919);
#80=PLANE('',#921);
#81=PLANE('',#924);
#82=PLANE('',#925);
#83=PLANE('',#926);
#84=PLANE('',#927);
#85=FACE_OUTER_BOUND('',#134,.T.);
#86=FACE_OUTER_BOUND('',#135,.T.);
#87=FACE_OUTER_BOUND('',#137,.T.);
#88=FACE_OUTER_BOUND('',#138,.T.);
#89=FACE_OUTER_BOUND('',#139,.T.);
#90=FACE_OUTER_BOUND('',#140,.T.);
#91=FACE_OUTER_BOUND('',#141,.T.);
#92=FACE_OUTER_BOUND('',#142,.T.);
#93=FACE_OUTER_BOUND('',#143,.T.);
#94=FACE_OUTER_BOUND('',#144,.T.);
#95=FACE_OUTER_BOUND('',#145,.T.);
#96=FACE_OUTER_BOUND('',#146,.T.);
#97=FACE_OUTER_BOUND('',#147,.T.);
#98=FACE_OUTER_BOUND('',#148,.T.);
#99=FACE_OUTER_BOUND('',#150,.T.);
#100=FACE_OUTER_BOUND('',#151,.T.);
#101=FACE_OUTER_BOUND('',#152,.T.);
#102=FACE_OUTER_BOUND('',#155,.T.);
#103=FACE_OUTER_BOUND('',#156,.T.);
#104=FACE_OUTER_BOUND('',#157,.T.);
#105=FACE_OUTER_BOUND('',#158,.T.);
#106=FACE_OUTER_BOUND('',#159,.T.);
#107=FACE_OUTER_BOUND('',#160,.T.);
#108=FACE_OUTER_BOUND('',#161,.T.);
#109=FACE_OUTER_BOUND('',#162,.T.);
#110=FACE_OUTER_BOUND('',#163,.T.);
#111=FACE_OUTER_BOUND('',#164,.T.);
#112=FACE_OUTER_BOUND('',#165,.T.);
#113=FACE_OUTER_BOUND('',#166,.T.);
#114=FACE_OUTER_BOUND('',#167,.T.);
#115=FACE_OUTER_BOUND('',#168,.T.);
#116=FACE_OUTER_BOUND('',#169,.T.);
#117=FACE_OUTER_BOUND('',#170,.T.);
#118=FACE_OUTER_BOUND('',#171,.T.);
#119=FACE_OUTER_BOUND('',#172,.T.);
#120=FACE_OUTER_BOUND('',#173,.T.);
#121=FACE_OUTER_BOUND('',#174,.T.);
#122=FACE_OUTER_BOUND('',#175,.T.);
#123=FACE_OUTER_BOUND('',#176,.T.);
#124=FACE_OUTER_BOUND('',#177,.T.);
#125=FACE_OUTER_BOUND('',#178,.T.);
#126=FACE_OUTER_BOUND('',#179,.T.);
#127=FACE_OUTER_BOUND('',#180,.T.);
#128=FACE_OUTER_BOUND('',#181,.T.);
#129=FACE_OUTER_BOUND('',#182,.T.);
#130=FACE_OUTER_BOUND('',#183,.T.);
#131=FACE_OUTER_BOUND('',#184,.T.);
#132=FACE_OUTER_BOUND('',#185,.T.);
#133=FACE_OUTER_BOUND('',#186,.T.);
#134=EDGE_LOOP('',(#549,#550,#551,#552));
#135=EDGE_LOOP('',(#553));
#136=EDGE_LOOP('',(#554));
#137=EDGE_LOOP('',(#555,#556,#557,#558));
#138=EDGE_LOOP('',(#559,#560,#561,#562,#563));
#139=EDGE_LOOP('',(#564,#565,#566,#567,#568));
#140=EDGE_LOOP('',(#569));
#141=EDGE_LOOP('',(#570,#571,#572,#573,#574));
#142=EDGE_LOOP('',(#575,#576,#577,#578,#579));
#143=EDGE_LOOP('',(#580));
#144=EDGE_LOOP('',(#581,#582,#583,#584,#585,#586));
#145=EDGE_LOOP('',(#587,#588,#589,#590));
#146=EDGE_LOOP('',(#591,#592,#593,#594,#595));
#147=EDGE_LOOP('',(#596,#597,#598,#599));
#148=EDGE_LOOP('',(#600,#601,#602,#603));
#149=EDGE_LOOP('',(#604));
#150=EDGE_LOOP('',(#605,#606,#607,#608));
#151=EDGE_LOOP('',(#609,#610,#611,#612,#613));
#152=EDGE_LOOP('',(#614,#615,#616,#617,#618));
#153=EDGE_LOOP('',(#619));
#154=EDGE_LOOP('',(#620));
#155=EDGE_LOOP('',(#621,#622,#623,#624));
#156=EDGE_LOOP('',(#625,#626,#627,#628,#629,#630));
#157=EDGE_LOOP('',(#631,#632,#633,#634));
#158=EDGE_LOOP('',(#635,#636,#637,#638));
#159=EDGE_LOOP('',(#639,#640,#641,#642));
#160=EDGE_LOOP('',(#643,#644,#645,#646));
#161=EDGE_LOOP('',(#647,#648,#649,#650));
#162=EDGE_LOOP('',(#651,#652,#653,#654,#655,#656));
#163=EDGE_LOOP('',(#657,#658,#659,#660));
#164=EDGE_LOOP('',(#661,#662,#663,#664,#665,#666));
#165=EDGE_LOOP('',(#667,#668,#669,#670));
#166=EDGE_LOOP('',(#671,#672,#673,#674));
#167=EDGE_LOOP('',(#675,#676,#677,#678));
#168=EDGE_LOOP('',(#679,#680,#681,#682));
#169=EDGE_LOOP('',(#683,#684,#685,#686));
#170=EDGE_LOOP('',(#687,#688,#689,#690,#691,#692));
#171=EDGE_LOOP('',(#693,#694,#695,#696));
#172=EDGE_LOOP('',(#697,#698,#699,#700));
#173=EDGE_LOOP('',(#701,#702,#703,#704,#705,#706));
#174=EDGE_LOOP('',(#707,#708,#709,#710));
#175=EDGE_LOOP('',(#711,#712,#713,#714));
#176=EDGE_LOOP('',(#715,#716,#717,#718));
#177=EDGE_LOOP('',(#719,#720,#721,#722));
#178=EDGE_LOOP('',(#723,#724,#725,#726,#727,#728));
#179=EDGE_LOOP('',(#729,#730,#731,#732));
#180=EDGE_LOOP('',(#733,#734,#735,#736,#737,#738));
#181=EDGE_LOOP('',(#739,#740,#741,#742));
#182=EDGE_LOOP('',(#743,#744,#745,#746));
#183=EDGE_LOOP('',(#747,#748,#749,#750));
#184=EDGE_LOOP('',(#751,#752,#753,#754));
#185=EDGE_LOOP('',(#755,#756,#757,#758));
#186=EDGE_LOOP('',(#759,#760,#761,#762,#763,#764));
#187=LINE('',#1185,#262);
#188=LINE('',#1192,#263);
#189=LINE('',#1204,#264);
#190=LINE('',#1217,#265);
#191=LINE('',#1222,#266);
#192=LINE('',#1230,#267);
#193=LINE('',#1232,#268);
#194=LINE('',#1233,#269);
#195=LINE('',#1236,#270);
#196=LINE('',#1238,#271);
#197=LINE('',#1239,#272);
#198=LINE('',#1242,#273);
#199=LINE('',#1244,#274);
#200=LINE('',#1245,#275);
#201=LINE('',#1248,#276);
#202=LINE('',#1250,#277);
#203=LINE('',#1251,#278);
#204=LINE('',#1253,#279);
#205=LINE('',#1254,#280);
#206=LINE('',#1263,#281);
#207=LINE('',#1266,#282);
#208=LINE('',#1269,#283);
#209=LINE('',#1273,#284);
#210=LINE('',#1275,#285);
#211=LINE('',#1276,#286);
#212=LINE('',#1279,#287);
#213=LINE('',#1280,#288);
#214=LINE('',#1284,#289);
#215=LINE('',#1287,#290);
#216=LINE('',#1288,#291);
#217=LINE('',#1291,#292);
#218=LINE('',#1292,#293);
#219=LINE('',#1294,#294);
#220=LINE('',#1301,#295);
#221=LINE('',#1304,#296);
#222=LINE('',#1307,#297);
#223=LINE('',#1311,#298);
#224=LINE('',#1313,#299);
#225=LINE('',#1314,#300);
#226=LINE('',#1317,#301);
#227=LINE('',#1318,#302);
#228=LINE('',#1322,#303);
#229=LINE('',#1325,#304);
#230=LINE('',#1326,#305);
#231=LINE('',#1329,#306);
#232=LINE('',#1330,#307);
#233=LINE('',#1332,#308);
#234=LINE('',#1339,#309);
#235=LINE('',#1342,#310);
#236=LINE('',#1345,#311);
#237=LINE('',#1347,#312);
#238=LINE('',#1348,#313);
#239=LINE('',#1351,#314);
#240=LINE('',#1353,#315);
#241=LINE('',#1355,#316);
#242=LINE('',#1359,#317);
#243=LINE('',#1363,#318);
#244=LINE('',#1364,#319);
#245=LINE('',#1367,#320);
#246=LINE('',#1368,#321);
#247=LINE('',#1370,#322);
#248=LINE('',#1377,#323);
#249=LINE('',#1380,#324);
#250=LINE('',#1383,#325);
#251=LINE('',#1387,#326);
#252=LINE('',#1389,#327);
#253=LINE('',#1390,#328);
#254=LINE('',#1393,#329);
#255=LINE('',#1394,#330);
#256=LINE('',#1398,#331);
#257=LINE('',#1401,#332);
#258=LINE('',#1402,#333);
#259=LINE('',#1405,#334);
#260=LINE('',#1406,#335);
#261=LINE('',#1408,#336);
#262=VECTOR('',#938,1.9);
#263=VECTOR('',#947,1.8);
#264=VECTOR('',#962,0.4);
#265=VECTOR('',#979,0.4);
#266=VECTOR('',#986,2.5);
#267=VECTOR('',#995,10.);
#268=VECTOR('',#996,10.);
#269=VECTOR('',#997,10.);
#270=VECTOR('',#1000,10.);
#271=VECTOR('',#1001,10.);
#272=VECTOR('',#1002,10.);
#273=VECTOR('',#1005,10.);
#274=VECTOR('',#1006,10.);
#275=VECTOR('',#1007,10.);
#276=VECTOR('',#1010,10.);
#277=VECTOR('',#1011,10.);
#278=VECTOR('',#1012,10.);
#279=VECTOR('',#1015,10.);
#280=VECTOR('',#1016,10.);
#281=VECTOR('',#1027,10.);
#282=VECTOR('',#1030,10.);
#283=VECTOR('',#1033,10.);
#284=VECTOR('',#1036,10.);
#285=VECTOR('',#1037,10.);
#286=VECTOR('',#1038,10.);
#287=VECTOR('',#1041,10.);
#288=VECTOR('',#1042,10.);
#289=VECTOR('',#1047,10.);
#290=VECTOR('',#1050,10.);
#291=VECTOR('',#1051,10.);
#292=VECTOR('',#1054,10.);
#293=VECTOR('',#1055,10.);
#294=VECTOR('',#1058,10.);
#295=VECTOR('',#1065,10.);
#296=VECTOR('',#1068,10.);
#297=VECTOR('',#1071,10.);
#298=VECTOR('',#1074,10.);
#299=VECTOR('',#1075,10.);
#300=VECTOR('',#1076,10.);
#301=VECTOR('',#1079,10.);
#302=VECTOR('',#1080,10.);
#303=VECTOR('',#1085,10.);
#304=VECTOR('',#1088,10.);
#305=VECTOR('',#1089,10.);
#306=VECTOR('',#1092,10.);
#307=VECTOR('',#1093,10.);
#308=VECTOR('',#1096,10.);
#309=VECTOR('',#1103,10.);
#310=VECTOR('',#1106,10.);
#311=VECTOR('',#1109,10.);
#312=VECTOR('',#1110,10.);
#313=VECTOR('',#1111,10.);
#314=VECTOR('',#1114,10.);
#315=VECTOR('',#1115,10.);
#316=VECTOR('',#1116,10.);
#317=VECTOR('',#1121,10.);
#318=VECTOR('',#1126,10.);
#319=VECTOR('',#1127,10.);
#320=VECTOR('',#1130,10.);
#321=VECTOR('',#1131,10.);
#322=VECTOR('',#1134,10.);
#323=VECTOR('',#1141,10.);
#324=VECTOR('',#1144,10.);
#325=VECTOR('',#1147,10.);
#326=VECTOR('',#1150,10.);
#327=VECTOR('',#1151,10.);
#328=VECTOR('',#1152,10.);
#329=VECTOR('',#1155,10.);
#330=VECTOR('',#1156,10.);
#331=VECTOR('',#1161,10.);
#332=VECTOR('',#1164,10.);
#333=VECTOR('',#1165,10.);
#334=VECTOR('',#1168,10.);
#335=VECTOR('',#1169,10.);
#336=VECTOR('',#1172,10.);
#337=CIRCLE('',#846,2.);
#338=CIRCLE('',#847,1.8);
#339=CIRCLE('',#849,2.5);
#340=CIRCLE('',#851,1.8);
#341=CIRCLE('',#853,0.25);
#342=CIRCLE('',#854,0.15);
#343=CIRCLE('',#855,0.4);
#344=CIRCLE('',#856,0.4);
#345=CIRCLE('',#858,0.4);
#346=CIRCLE('',#861,0.25);
#347=CIRCLE('',#862,0.15);
#348=CIRCLE('',#863,0.4);
#349=CIRCLE('',#864,0.4);
#350=CIRCLE('',#866,0.4);
#351=CIRCLE('',#869,2.5);
#352=CIRCLE('',#870,2.5);
#353=CIRCLE('',#871,2.5);
#354=CIRCLE('',#881,0.2);
#355=CIRCLE('',#882,0.2);
#356=CIRCLE('',#884,0.2);
#357=CIRCLE('',#887,0.2);
#358=CIRCLE('',#893,0.2);
#359=CIRCLE('',#894,0.2);
#360=CIRCLE('',#896,0.2);
#361=CIRCLE('',#899,0.2);
#362=CIRCLE('',#905,0.2);
#363=CIRCLE('',#906,0.2);
#364=CIRCLE('',#909,0.2);
#365=CIRCLE('',#911,0.2);
#366=CIRCLE('',#917,0.2);
#367=CIRCLE('',#918,0.2);
#368=CIRCLE('',#920,0.2);
#369=CIRCLE('',#923,0.2);
#370=VERTEX_POINT('',#1182);
#371=VERTEX_POINT('',#1184);
#372=VERTEX_POINT('',#1188);
#373=VERTEX_POINT('',#1191);
#374=VERTEX_POINT('',#1195);
#375=VERTEX_POINT('',#1197);
#376=VERTEX_POINT('',#1199);
#377=VERTEX_POINT('',#1203);
#378=VERTEX_POINT('',#1208);
#379=VERTEX_POINT('',#1210);
#380=VERTEX_POINT('',#1212);
#381=VERTEX_POINT('',#1216);
#382=VERTEX_POINT('',#1221);
#383=VERTEX_POINT('',#1223);
#384=VERTEX_POINT('',#1225);
#385=VERTEX_POINT('',#1229);
#386=VERTEX_POINT('',#1231);
#387=VERTEX_POINT('',#1235);
#388=VERTEX_POINT('',#1237);
#389=VERTEX_POINT('',#1241);
#390=VERTEX_POINT('',#1243);
#391=VERTEX_POINT('',#1247);
#392=VERTEX_POINT('',#1249);
#393=VERTEX_POINT('',#1259);
#394=VERTEX_POINT('',#1260);
#395=VERTEX_POINT('',#1262);
#396=VERTEX_POINT('',#1264);
#397=VERTEX_POINT('',#1268);
#398=VERTEX_POINT('',#1270);
#399=VERTEX_POINT('',#1272);
#400=VERTEX_POINT('',#1274);
#401=VERTEX_POINT('',#1278);
#402=VERTEX_POINT('',#1282);
#403=VERTEX_POINT('',#1286);
#404=VERTEX_POINT('',#1290);
#405=VERTEX_POINT('',#1297);
#406=VERTEX_POINT('',#1298);
#407=VERTEX_POINT('',#1300);
#408=VERTEX_POINT('',#1302);
#409=VERTEX_POINT('',#1306);
#410=VERTEX_POINT('',#1308);
#411=VERTEX_POINT('',#1310);
#412=VERTEX_POINT('',#1312);
#413=VERTEX_POINT('',#1316);
#414=VERTEX_POINT('',#1320);
#415=VERTEX_POINT('',#1324);
#416=VERTEX_POINT('',#1328);
#417=VERTEX_POINT('',#1335);
#418=VERTEX_POINT('',#1336);
#419=VERTEX_POINT('',#1338);
#420=VERTEX_POINT('',#1340);
#421=VERTEX_POINT('',#1344);
#422=VERTEX_POINT('',#1346);
#423=VERTEX_POINT('',#1350);
#424=VERTEX_POINT('',#1352);
#425=VERTEX_POINT('',#1354);
#426=VERTEX_POINT('',#1358);
#427=VERTEX_POINT('',#1362);
#428=VERTEX_POINT('',#1366);
#429=VERTEX_POINT('',#1373);
#430=VERTEX_POINT('',#1374);
#431=VERTEX_POINT('',#1376);
#432=VERTEX_POINT('',#1378);
#433=VERTEX_POINT('',#1382);
#434=VERTEX_POINT('',#1384);
#435=VERTEX_POINT('',#1386);
#436=VERTEX_POINT('',#1388);
#437=VERTEX_POINT('',#1392);
#438=VERTEX_POINT('',#1396);
#439=VERTEX_POINT('',#1400);
#440=VERTEX_POINT('',#1404);
#441=EDGE_CURVE('',#370,#370,#337,.T.);
#442=EDGE_CURVE('',#370,#371,#187,.T.);
#443=EDGE_CURVE('',#371,#371,#338,.T.);
#444=EDGE_CURVE('',#372,#372,#339,.T.);
#445=EDGE_CURVE('',#371,#373,#188,.T.);
#446=EDGE_CURVE('',#373,#373,#340,.T.);
#447=EDGE_CURVE('',#374,#374,#341,.T.);
#448=EDGE_CURVE('',#374,#375,#342,.T.);
#449=EDGE_CURVE('',#375,#376,#343,.T.);
#450=EDGE_CURVE('',#376,#375,#344,.T.);
#451=EDGE_CURVE('',#376,#377,#189,.T.);
#452=EDGE_CURVE('',#377,#377,#345,.T.);
#453=EDGE_CURVE('',#378,#378,#346,.T.);
#454=EDGE_CURVE('',#378,#379,#347,.T.);
#455=EDGE_CURVE('',#379,#380,#348,.T.);
#456=EDGE_CURVE('',#380,#379,#349,.T.);
#457=EDGE_CURVE('',#380,#381,#190,.T.);
#458=EDGE_CURVE('',#381,#381,#350,.T.);
#459=EDGE_CURVE('',#372,#382,#191,.T.);
#460=EDGE_CURVE('',#383,#382,#351,.T.);
#461=EDGE_CURVE('',#384,#383,#352,.T.);
#462=EDGE_CURVE('',#382,#384,#353,.T.);
#463=EDGE_CURVE('',#385,#383,#192,.T.);
#464=EDGE_CURVE('',#385,#386,#193,.T.);
#465=EDGE_CURVE('',#384,#386,#194,.T.);
#466=EDGE_CURVE('',#387,#384,#195,.T.);
#467=EDGE_CURVE('',#388,#387,#196,.T.);
#468=EDGE_CURVE('',#383,#388,#197,.T.);
#469=EDGE_CURVE('',#388,#389,#198,.T.);
#470=EDGE_CURVE('',#390,#387,#199,.T.);
#471=EDGE_CURVE('',#389,#390,#200,.T.);
#472=EDGE_CURVE('',#389,#391,#201,.T.);
#473=EDGE_CURVE('',#392,#390,#202,.T.);
#474=EDGE_CURVE('',#391,#392,#203,.T.);
#475=EDGE_CURVE('',#391,#385,#204,.T.);
#476=EDGE_CURVE('',#386,#392,#205,.T.);
#477=EDGE_CURVE('',#393,#394,#354,.T.);
#478=EDGE_CURVE('',#394,#395,#206,.T.);
#479=EDGE_CURVE('',#395,#396,#355,.T.);
#480=EDGE_CURVE('',#396,#393,#207,.T.);
#481=EDGE_CURVE('',#395,#397,#208,.T.);
#482=EDGE_CURVE('',#398,#397,#356,.T.);
#483=EDGE_CURVE('',#398,#399,#209,.T.);
#484=EDGE_CURVE('',#399,#400,#210,.T.);
#485=EDGE_CURVE('',#400,#396,#211,.T.);
#486=EDGE_CURVE('',#401,#394,#212,.T.);
#487=EDGE_CURVE('',#397,#401,#213,.T.);
#488=EDGE_CURVE('',#401,#402,#357,.T.);
#489=EDGE_CURVE('',#402,#398,#214,.T.);
#490=EDGE_CURVE('',#403,#402,#215,.T.);
#491=EDGE_CURVE('',#399,#403,#216,.T.);
#492=EDGE_CURVE('',#404,#403,#217,.T.);
#493=EDGE_CURVE('',#400,#404,#218,.T.);
#494=EDGE_CURVE('',#393,#404,#219,.T.);
#495=EDGE_CURVE('',#405,#406,#358,.T.);
#496=EDGE_CURVE('',#406,#407,#220,.T.);
#497=EDGE_CURVE('',#407,#408,#359,.T.);
#498=EDGE_CURVE('',#408,#405,#221,.T.);
#499=EDGE_CURVE('',#407,#409,#222,.T.);
#500=EDGE_CURVE('',#410,#409,#360,.T.);
#501=EDGE_CURVE('',#410,#411,#223,.T.);
#502=EDGE_CURVE('',#411,#412,#224,.T.);
#503=EDGE_CURVE('',#412,#408,#225,.T.);
#504=EDGE_CURVE('',#413,#406,#226,.T.);
#505=EDGE_CURVE('',#409,#413,#227,.T.);
#506=EDGE_CURVE('',#413,#414,#361,.T.);
#507=EDGE_CURVE('',#414,#410,#228,.T.);
#508=EDGE_CURVE('',#415,#414,#229,.T.);
#509=EDGE_CURVE('',#411,#415,#230,.T.);
#510=EDGE_CURVE('',#416,#415,#231,.T.);
#511=EDGE_CURVE('',#412,#416,#232,.T.);
#512=EDGE_CURVE('',#405,#416,#233,.T.);
#513=EDGE_CURVE('',#417,#418,#362,.T.);
#514=EDGE_CURVE('',#418,#419,#234,.T.);
#515=EDGE_CURVE('',#419,#420,#363,.T.);
#516=EDGE_CURVE('',#420,#417,#235,.T.);
#517=EDGE_CURVE('',#421,#420,#236,.T.);
#518=EDGE_CURVE('',#422,#421,#237,.T.);
#519=EDGE_CURVE('',#417,#422,#238,.T.);
#520=EDGE_CURVE('',#419,#423,#239,.T.);
#521=EDGE_CURVE('',#423,#424,#240,.T.);
#522=EDGE_CURVE('',#424,#425,#241,.T.);
#523=EDGE_CURVE('',#421,#425,#364,.T.);
#524=EDGE_CURVE('',#425,#426,#242,.T.);
#525=EDGE_CURVE('',#426,#422,#365,.T.);
#526=EDGE_CURVE('',#424,#427,#243,.T.);
#527=EDGE_CURVE('',#426,#427,#244,.T.);
#528=EDGE_CURVE('',#428,#418,#245,.T.);
#529=EDGE_CURVE('',#423,#428,#246,.T.);
#530=EDGE_CURVE('',#427,#428,#247,.T.);
#531=EDGE_CURVE('',#429,#430,#366,.T.);
#532=EDGE_CURVE('',#430,#431,#248,.T.);
#533=EDGE_CURVE('',#431,#432,#367,.T.);
#534=EDGE_CURVE('',#432,#429,#249,.T.);
#535=EDGE_CURVE('',#429,#433,#250,.T.);
#536=EDGE_CURVE('',#434,#433,#368,.T.);
#537=EDGE_CURVE('',#434,#435,#251,.T.);
#538=EDGE_CURVE('',#435,#436,#252,.T.);
#539=EDGE_CURVE('',#436,#430,#253,.T.);
#540=EDGE_CURVE('',#437,#432,#254,.T.);
#541=EDGE_CURVE('',#433,#437,#255,.T.);
#542=EDGE_CURVE('',#437,#438,#369,.T.);
#543=EDGE_CURVE('',#438,#434,#256,.T.);
#544=EDGE_CURVE('',#439,#438,#257,.T.);
#545=EDGE_CURVE('',#435,#439,#258,.T.);
#546=EDGE_CURVE('',#440,#439,#259,.T.);
#547=EDGE_CURVE('',#436,#440,#260,.T.);
#548=EDGE_CURVE('',#431,#440,#261,.T.);
#549=ORIENTED_EDGE('',*,*,#441,.T.);
#550=ORIENTED_EDGE('',*,*,#442,.T.);
#551=ORIENTED_EDGE('',*,*,#443,.T.);
#552=ORIENTED_EDGE('',*,*,#442,.F.);
#553=ORIENTED_EDGE('',*,*,#444,.T.);
#554=ORIENTED_EDGE('',*,*,#441,.F.);
#555=ORIENTED_EDGE('',*,*,#443,.F.);
#556=ORIENTED_EDGE('',*,*,#445,.T.);
#557=ORIENTED_EDGE('',*,*,#446,.F.);
#558=ORIENTED_EDGE('',*,*,#445,.F.);
#559=ORIENTED_EDGE('',*,*,#447,.T.);
#560=ORIENTED_EDGE('',*,*,#448,.T.);
#561=ORIENTED_EDGE('',*,*,#449,.T.);
#562=ORIENTED_EDGE('',*,*,#450,.T.);
#563=ORIENTED_EDGE('',*,*,#448,.F.);
#564=ORIENTED_EDGE('',*,*,#450,.F.);
#565=ORIENTED_EDGE('',*,*,#451,.T.);
#566=ORIENTED_EDGE('',*,*,#452,.F.);
#567=ORIENTED_EDGE('',*,*,#451,.F.);
#568=ORIENTED_EDGE('',*,*,#449,.F.);
#569=ORIENTED_EDGE('',*,*,#447,.F.);
#570=ORIENTED_EDGE('',*,*,#453,.T.);
#571=ORIENTED_EDGE('',*,*,#454,.T.);
#572=ORIENTED_EDGE('',*,*,#455,.T.);
#573=ORIENTED_EDGE('',*,*,#456,.T.);
#574=ORIENTED_EDGE('',*,*,#454,.F.);
#575=ORIENTED_EDGE('',*,*,#456,.F.);
#576=ORIENTED_EDGE('',*,*,#457,.T.);
#577=ORIENTED_EDGE('',*,*,#458,.F.);
#578=ORIENTED_EDGE('',*,*,#457,.F.);
#579=ORIENTED_EDGE('',*,*,#455,.F.);
#580=ORIENTED_EDGE('',*,*,#453,.F.);
#581=ORIENTED_EDGE('',*,*,#444,.F.);
#582=ORIENTED_EDGE('',*,*,#459,.T.);
#583=ORIENTED_EDGE('',*,*,#460,.F.);
#584=ORIENTED_EDGE('',*,*,#461,.F.);
#585=ORIENTED_EDGE('',*,*,#462,.F.);
#586=ORIENTED_EDGE('',*,*,#459,.F.);
#587=ORIENTED_EDGE('',*,*,#461,.T.);
#588=ORIENTED_EDGE('',*,*,#463,.F.);
#589=ORIENTED_EDGE('',*,*,#464,.T.);
#590=ORIENTED_EDGE('',*,*,#465,.F.);
#591=ORIENTED_EDGE('',*,*,#460,.T.);
#592=ORIENTED_EDGE('',*,*,#462,.T.);
#593=ORIENTED_EDGE('',*,*,#466,.F.);
#594=ORIENTED_EDGE('',*,*,#467,.F.);
#595=ORIENTED_EDGE('',*,*,#468,.F.);
#596=ORIENTED_EDGE('',*,*,#469,.F.);
#597=ORIENTED_EDGE('',*,*,#467,.T.);
#598=ORIENTED_EDGE('',*,*,#470,.F.);
#599=ORIENTED_EDGE('',*,*,#471,.F.);
#600=ORIENTED_EDGE('',*,*,#472,.F.);
#601=ORIENTED_EDGE('',*,*,#471,.T.);
#602=ORIENTED_EDGE('',*,*,#473,.F.);
#603=ORIENTED_EDGE('',*,*,#474,.F.);
#604=ORIENTED_EDGE('',*,*,#446,.T.);
#605=ORIENTED_EDGE('',*,*,#475,.F.);
#606=ORIENTED_EDGE('',*,*,#474,.T.);
#607=ORIENTED_EDGE('',*,*,#476,.F.);
#608=ORIENTED_EDGE('',*,*,#464,.F.);
#609=ORIENTED_EDGE('',*,*,#476,.T.);
#610=ORIENTED_EDGE('',*,*,#473,.T.);
#611=ORIENTED_EDGE('',*,*,#470,.T.);
#612=ORIENTED_EDGE('',*,*,#466,.T.);
#613=ORIENTED_EDGE('',*,*,#465,.T.);
#614=ORIENTED_EDGE('',*,*,#475,.T.);
#615=ORIENTED_EDGE('',*,*,#463,.T.);
#616=ORIENTED_EDGE('',*,*,#468,.T.);
#617=ORIENTED_EDGE('',*,*,#469,.T.);
#618=ORIENTED_EDGE('',*,*,#472,.T.);
#619=ORIENTED_EDGE('',*,*,#452,.T.);
#620=ORIENTED_EDGE('',*,*,#458,.T.);
#621=ORIENTED_EDGE('',*,*,#477,.T.);
#622=ORIENTED_EDGE('',*,*,#478,.T.);
#623=ORIENTED_EDGE('',*,*,#479,.T.);
#624=ORIENTED_EDGE('',*,*,#480,.T.);
#625=ORIENTED_EDGE('',*,*,#479,.F.);
#626=ORIENTED_EDGE('',*,*,#481,.T.);
#627=ORIENTED_EDGE('',*,*,#482,.F.);
#628=ORIENTED_EDGE('',*,*,#483,.T.);
#629=ORIENTED_EDGE('',*,*,#484,.T.);
#630=ORIENTED_EDGE('',*,*,#485,.T.);
#631=ORIENTED_EDGE('',*,*,#478,.F.);
#632=ORIENTED_EDGE('',*,*,#486,.F.);
#633=ORIENTED_EDGE('',*,*,#487,.F.);
#634=ORIENTED_EDGE('',*,*,#481,.F.);
#635=ORIENTED_EDGE('',*,*,#482,.T.);
#636=ORIENTED_EDGE('',*,*,#487,.T.);
#637=ORIENTED_EDGE('',*,*,#488,.T.);
#638=ORIENTED_EDGE('',*,*,#489,.T.);
#639=ORIENTED_EDGE('',*,*,#489,.F.);
#640=ORIENTED_EDGE('',*,*,#490,.F.);
#641=ORIENTED_EDGE('',*,*,#491,.F.);
#642=ORIENTED_EDGE('',*,*,#483,.F.);
#643=ORIENTED_EDGE('',*,*,#491,.T.);
#644=ORIENTED_EDGE('',*,*,#492,.F.);
#645=ORIENTED_EDGE('',*,*,#493,.F.);
#646=ORIENTED_EDGE('',*,*,#484,.F.);
#647=ORIENTED_EDGE('',*,*,#480,.F.);
#648=ORIENTED_EDGE('',*,*,#485,.F.);
#649=ORIENTED_EDGE('',*,*,#493,.T.);
#650=ORIENTED_EDGE('',*,*,#494,.F.);
#651=ORIENTED_EDGE('',*,*,#477,.F.);
#652=ORIENTED_EDGE('',*,*,#494,.T.);
#653=ORIENTED_EDGE('',*,*,#492,.T.);
#654=ORIENTED_EDGE('',*,*,#490,.T.);
#655=ORIENTED_EDGE('',*,*,#488,.F.);
#656=ORIENTED_EDGE('',*,*,#486,.T.);
#657=ORIENTED_EDGE('',*,*,#495,.T.);
#658=ORIENTED_EDGE('',*,*,#496,.T.);
#659=ORIENTED_EDGE('',*,*,#497,.T.);
#660=ORIENTED_EDGE('',*,*,#498,.T.);
#661=ORIENTED_EDGE('',*,*,#497,.F.);
#662=ORIENTED_EDGE('',*,*,#499,.T.);
#663=ORIENTED_EDGE('',*,*,#500,.F.);
#664=ORIENTED_EDGE('',*,*,#501,.T.);
#665=ORIENTED_EDGE('',*,*,#502,.T.);
#666=ORIENTED_EDGE('',*,*,#503,.T.);
#667=ORIENTED_EDGE('',*,*,#496,.F.);
#668=ORIENTED_EDGE('',*,*,#504,.F.);
#669=ORIENTED_EDGE('',*,*,#505,.F.);
#670=ORIENTED_EDGE('',*,*,#499,.F.);
#671=ORIENTED_EDGE('',*,*,#500,.T.);
#672=ORIENTED_EDGE('',*,*,#505,.T.);
#673=ORIENTED_EDGE('',*,*,#506,.T.);
#674=ORIENTED_EDGE('',*,*,#507,.T.);
#675=ORIENTED_EDGE('',*,*,#507,.F.);
#676=ORIENTED_EDGE('',*,*,#508,.F.);
#677=ORIENTED_EDGE('',*,*,#509,.F.);
#678=ORIENTED_EDGE('',*,*,#501,.F.);
#679=ORIENTED_EDGE('',*,*,#509,.T.);
#680=ORIENTED_EDGE('',*,*,#510,.F.);
#681=ORIENTED_EDGE('',*,*,#511,.F.);
#682=ORIENTED_EDGE('',*,*,#502,.F.);
#683=ORIENTED_EDGE('',*,*,#498,.F.);
#684=ORIENTED_EDGE('',*,*,#503,.F.);
#685=ORIENTED_EDGE('',*,*,#511,.T.);
#686=ORIENTED_EDGE('',*,*,#512,.F.);
#687=ORIENTED_EDGE('',*,*,#495,.F.);
#688=ORIENTED_EDGE('',*,*,#512,.T.);
#689=ORIENTED_EDGE('',*,*,#510,.T.);
#690=ORIENTED_EDGE('',*,*,#508,.T.);
#691=ORIENTED_EDGE('',*,*,#506,.F.);
#692=ORIENTED_EDGE('',*,*,#504,.T.);
#693=ORIENTED_EDGE('',*,*,#513,.T.);
#694=ORIENTED_EDGE('',*,*,#514,.T.);
#695=ORIENTED_EDGE('',*,*,#515,.T.);
#696=ORIENTED_EDGE('',*,*,#516,.T.);
#697=ORIENTED_EDGE('',*,*,#516,.F.);
#698=ORIENTED_EDGE('',*,*,#517,.F.);
#699=ORIENTED_EDGE('',*,*,#518,.F.);
#700=ORIENTED_EDGE('',*,*,#519,.F.);
#701=ORIENTED_EDGE('',*,*,#515,.F.);
#702=ORIENTED_EDGE('',*,*,#520,.T.);
#703=ORIENTED_EDGE('',*,*,#521,.T.);
#704=ORIENTED_EDGE('',*,*,#522,.T.);
#705=ORIENTED_EDGE('',*,*,#523,.F.);
#706=ORIENTED_EDGE('',*,*,#517,.T.);
#707=ORIENTED_EDGE('',*,*,#523,.T.);
#708=ORIENTED_EDGE('',*,*,#524,.T.);
#709=ORIENTED_EDGE('',*,*,#525,.T.);
#710=ORIENTED_EDGE('',*,*,#518,.T.);
#711=ORIENTED_EDGE('',*,*,#524,.F.);
#712=ORIENTED_EDGE('',*,*,#522,.F.);
#713=ORIENTED_EDGE('',*,*,#526,.T.);
#714=ORIENTED_EDGE('',*,*,#527,.F.);
#715=ORIENTED_EDGE('',*,*,#514,.F.);
#716=ORIENTED_EDGE('',*,*,#528,.F.);
#717=ORIENTED_EDGE('',*,*,#529,.F.);
#718=ORIENTED_EDGE('',*,*,#520,.F.);
#719=ORIENTED_EDGE('',*,*,#529,.T.);
#720=ORIENTED_EDGE('',*,*,#530,.F.);
#721=ORIENTED_EDGE('',*,*,#526,.F.);
#722=ORIENTED_EDGE('',*,*,#521,.F.);
#723=ORIENTED_EDGE('',*,*,#513,.F.);
#724=ORIENTED_EDGE('',*,*,#519,.T.);
#725=ORIENTED_EDGE('',*,*,#525,.F.);
#726=ORIENTED_EDGE('',*,*,#527,.T.);
#727=ORIENTED_EDGE('',*,*,#530,.T.);
#728=ORIENTED_EDGE('',*,*,#528,.T.);
#729=ORIENTED_EDGE('',*,*,#531,.T.);
#730=ORIENTED_EDGE('',*,*,#532,.T.);
#731=ORIENTED_EDGE('',*,*,#533,.T.);
#732=ORIENTED_EDGE('',*,*,#534,.T.);
#733=ORIENTED_EDGE('',*,*,#531,.F.);
#734=ORIENTED_EDGE('',*,*,#535,.T.);
#735=ORIENTED_EDGE('',*,*,#536,.F.);
#736=ORIENTED_EDGE('',*,*,#537,.T.);
#737=ORIENTED_EDGE('',*,*,#538,.T.);
#738=ORIENTED_EDGE('',*,*,#539,.T.);
#739=ORIENTED_EDGE('',*,*,#534,.F.);
#740=ORIENTED_EDGE('',*,*,#540,.F.);
#741=ORIENTED_EDGE('',*,*,#541,.F.);
#742=ORIENTED_EDGE('',*,*,#535,.F.);
#743=ORIENTED_EDGE('',*,*,#542,.T.);
#744=ORIENTED_EDGE('',*,*,#543,.T.);
#745=ORIENTED_EDGE('',*,*,#536,.T.);
#746=ORIENTED_EDGE('',*,*,#541,.T.);
#747=ORIENTED_EDGE('',*,*,#543,.F.);
#748=ORIENTED_EDGE('',*,*,#544,.F.);
#749=ORIENTED_EDGE('',*,*,#545,.F.);
#750=ORIENTED_EDGE('',*,*,#537,.F.);
#751=ORIENTED_EDGE('',*,*,#545,.T.);
#752=ORIENTED_EDGE('',*,*,#546,.F.);
#753=ORIENTED_EDGE('',*,*,#547,.F.);
#754=ORIENTED_EDGE('',*,*,#538,.F.);
#755=ORIENTED_EDGE('',*,*,#532,.F.);
#756=ORIENTED_EDGE('',*,*,#539,.F.);
#757=ORIENTED_EDGE('',*,*,#547,.T.);
#758=ORIENTED_EDGE('',*,*,#548,.F.);
#759=ORIENTED_EDGE('',*,*,#533,.F.);
#760=ORIENTED_EDGE('',*,*,#548,.T.);
#761=ORIENTED_EDGE('',*,*,#546,.T.);
#762=ORIENTED_EDGE('',*,*,#544,.T.);
#763=ORIENTED_EDGE('',*,*,#542,.F.);
#764=ORIENTED_EDGE('',*,*,#540,.T.);
#765=CONICAL_SURFACE('',#845,1.9,0.785398163397448);
#766=ADVANCED_FACE('',(#85),#765,.F.);
#767=ADVANCED_FACE('',(#86,#47),#51,.T.);
#768=ADVANCED_FACE('',(#87),#35,.F.);
#769=ADVANCED_FACE('',(#88),#33,.T.);
#770=ADVANCED_FACE('',(#89),#36,.T.);
#771=ADVANCED_FACE('',(#90),#52,.F.);
#772=ADVANCED_FACE('',(#91),#34,.T.);
#773=ADVANCED_FACE('',(#92),#37,.T.);
#774=ADVANCED_FACE('',(#93),#53,.F.);
#775=ADVANCED_FACE('',(#94),#38,.T.);
#776=ADVANCED_FACE('',(#95),#54,.T.);
#777=ADVANCED_FACE('',(#96),#55,.T.);
#778=ADVANCED_FACE('',(#97),#56,.T.);
#779=ADVANCED_FACE('',(#98,#48),#57,.T.);
#780=ADVANCED_FACE('',(#99),#58,.T.);
#781=ADVANCED_FACE('',(#100),#59,.T.);
#782=ADVANCED_FACE('',(#101,#49,#50),#60,.F.);
#783=ADVANCED_FACE('',(#102),#39,.T.);
#784=ADVANCED_FACE('',(#103),#61,.T.);
#785=ADVANCED_FACE('',(#104),#62,.T.);
#786=ADVANCED_FACE('',(#105),#40,.T.);
#787=ADVANCED_FACE('',(#106),#63,.T.);
#788=ADVANCED_FACE('',(#107),#64,.T.);
#789=ADVANCED_FACE('',(#108),#65,.T.);
#790=ADVANCED_FACE('',(#109),#66,.T.);
#791=ADVANCED_FACE('',(#110),#41,.T.);
#792=ADVANCED_FACE('',(#111),#67,.T.);
#793=ADVANCED_FACE('',(#112),#68,.T.);
#794=ADVANCED_FACE('',(#113),#42,.T.);
#795=ADVANCED_FACE('',(#114),#69,.T.);
#796=ADVANCED_FACE('',(#115),#70,.T.);
#797=ADVANCED_FACE('',(#116),#71,.T.);
#798=ADVANCED_FACE('',(#117),#72,.T.);
#799=ADVANCED_FACE('',(#118),#43,.T.);
#800=ADVANCED_FACE('',(#119),#73,.T.);
#801=ADVANCED_FACE('',(#120),#74,.T.);
#802=ADVANCED_FACE('',(#121),#44,.T.);
#803=ADVANCED_FACE('',(#122),#75,.T.);
#804=ADVANCED_FACE('',(#123),#76,.T.);
#805=ADVANCED_FACE('',(#124),#77,.T.);
#806=ADVANCED_FACE('',(#125),#78,.T.);
#807=ADVANCED_FACE('',(#126),#45,.T.);
#808=ADVANCED_FACE('',(#127),#79,.T.);
#809=ADVANCED_FACE('',(#128),#80,.T.);
#810=ADVANCED_FACE('',(#129),#46,.T.);
#811=ADVANCED_FACE('',(#130),#81,.T.);
#812=ADVANCED_FACE('',(#131),#82,.T.);
#813=ADVANCED_FACE('',(#132),#83,.T.);
#814=ADVANCED_FACE('',(#133),#84,.T.);
#815=CLOSED_SHELL('',(#766,#767,#768,#769,#770,#771,#772,#773,#774,#775,
#776,#777,#778,#779,#780,#781,#782));
#816=CLOSED_SHELL('',(#783,#784,#785,#786,#787,#788,#789,#790));
#817=CLOSED_SHELL('',(#791,#792,#793,#794,#795,#796,#797,#798));
#818=CLOSED_SHELL('',(#799,#800,#801,#802,#803,#804,#805,#806));
#819=CLOSED_SHELL('',(#807,#808,#809,#810,#811,#812,#813,#814));
#820=DERIVED_UNIT_ELEMENT(#824,1.);
#821=DERIVED_UNIT_ELEMENT(#1421,3.);
#822=DERIVED_UNIT_ELEMENT(#824,1.);
#823=DERIVED_UNIT_ELEMENT(#1421,3.);
#824=(
MASS_UNIT()
NAMED_UNIT(*)
SI_UNIT(.KILO.,.GRAM.)
);
#825=DERIVED_UNIT((#820,#821));
#826=DERIVED_UNIT((#822,#823));
#827=MEASURE_REPRESENTATION_ITEM('density measure',
POSITIVE_RATIO_MEASURE(1637.),#825);
#828=MEASURE_REPRESENTATION_ITEM('density measure',
POSITIVE_RATIO_MEASURE(8940.),#826);
#829=PROPERTY_DEFINITION_REPRESENTATION(#839,#833);
#830=PROPERTY_DEFINITION_REPRESENTATION(#840,#834);
#831=PROPERTY_DEFINITION_REPRESENTATION(#841,#835);
#832=PROPERTY_DEFINITION_REPRESENTATION(#842,#836);
#833=REPRESENTATION('material name',(#837),#1417);
#834=REPRESENTATION('density',(#827),#1417);
#835=REPRESENTATION('material name',(#838),#1418);
#836=REPRESENTATION('density',(#828),#1418);
#837=DESCRIPTIVE_REPRESENTATION_ITEM('PPS Plastic','PPS Plastic');
#838=DESCRIPTIVE_REPRESENTATION_ITEM('Copper','Copper');
#839=PROPERTY_DEFINITION('material property','material name',#1437);
#840=PROPERTY_DEFINITION('material property','density of part',#1437);
#841=PROPERTY_DEFINITION('material property','material name',#1438);
#842=PROPERTY_DEFINITION('material property','density of part',#1438);
#843=AXIS2_PLACEMENT_3D('placement',#1179,#930,#931);
#844=AXIS2_PLACEMENT_3D('placement',#1180,#932,#933);
#845=AXIS2_PLACEMENT_3D('',#1181,#934,#935);
#846=AXIS2_PLACEMENT_3D('',#1183,#936,#937);
#847=AXIS2_PLACEMENT_3D('',#1186,#939,#940);
#848=AXIS2_PLACEMENT_3D('',#1187,#941,#942);
#849=AXIS2_PLACEMENT_3D('',#1189,#943,#944);
#850=AXIS2_PLACEMENT_3D('',#1190,#945,#946);
#851=AXIS2_PLACEMENT_3D('',#1193,#948,#949);
#852=AXIS2_PLACEMENT_3D('',#1194,#950,#951);
#853=AXIS2_PLACEMENT_3D('',#1196,#952,#953);
#854=AXIS2_PLACEMENT_3D('',#1198,#954,#955);
#855=AXIS2_PLACEMENT_3D('',#1200,#956,#957);
#856=AXIS2_PLACEMENT_3D('',#1201,#958,#959);
#857=AXIS2_PLACEMENT_3D('',#1202,#960,#961);
#858=AXIS2_PLACEMENT_3D('',#1205,#963,#964);
#859=AXIS2_PLACEMENT_3D('',#1206,#965,#966);
#860=AXIS2_PLACEMENT_3D('',#1207,#967,#968);
#861=AXIS2_PLACEMENT_3D('',#1209,#969,#970);
#862=AXIS2_PLACEMENT_3D('',#1211,#971,#972);
#863=AXIS2_PLACEMENT_3D('',#1213,#973,#974);
#864=AXIS2_PLACEMENT_3D('',#1214,#975,#976);
#865=AXIS2_PLACEMENT_3D('',#1215,#977,#978);
#866=AXIS2_PLACEMENT_3D('',#1218,#980,#981);
#867=AXIS2_PLACEMENT_3D('',#1219,#982,#983);
#868=AXIS2_PLACEMENT_3D('',#1220,#984,#985);
#869=AXIS2_PLACEMENT_3D('',#1224,#987,#988);
#870=AXIS2_PLACEMENT_3D('',#1226,#989,#990);
#871=AXIS2_PLACEMENT_3D('',#1227,#991,#992);
#872=AXIS2_PLACEMENT_3D('',#1228,#993,#994);
#873=AXIS2_PLACEMENT_3D('',#1234,#998,#999);
#874=AXIS2_PLACEMENT_3D('',#1240,#1003,#1004);
#875=AXIS2_PLACEMENT_3D('',#1246,#1008,#1009);
#876=AXIS2_PLACEMENT_3D('',#1252,#1013,#1014);
#877=AXIS2_PLACEMENT_3D('',#1255,#1017,#1018);
#878=AXIS2_PLACEMENT_3D('',#1256,#1019,#1020);
#879=AXIS2_PLACEMENT_3D('placement',#1257,#1021,#1022);
#880=AXIS2_PLACEMENT_3D('',#1258,#1023,#1024);
#881=AXIS2_PLACEMENT_3D('',#1261,#1025,#1026);
#882=AXIS2_PLACEMENT_3D('',#1265,#1028,#1029);
#883=AXIS2_PLACEMENT_3D('',#1267,#1031,#1032);
#884=AXIS2_PLACEMENT_3D('',#1271,#1034,#1035);
#885=AXIS2_PLACEMENT_3D('',#1277,#1039,#1040);
#886=AXIS2_PLACEMENT_3D('',#1281,#1043,#1044);
#887=AXIS2_PLACEMENT_3D('',#1283,#1045,#1046);
#888=AXIS2_PLACEMENT_3D('',#1285,#1048,#1049);
#889=AXIS2_PLACEMENT_3D('',#1289,#1052,#1053);
#890=AXIS2_PLACEMENT_3D('',#1293,#1056,#1057);
#891=AXIS2_PLACEMENT_3D('',#1295,#1059,#1060);
#892=AXIS2_PLACEMENT_3D('',#1296,#1061,#1062);
#893=AXIS2_PLACEMENT_3D('',#1299,#1063,#1064);
#894=AXIS2_PLACEMENT_3D('',#1303,#1066,#1067);
#895=AXIS2_PLACEMENT_3D('',#1305,#1069,#1070);
#896=AXIS2_PLACEMENT_3D('',#1309,#1072,#1073);
#897=AXIS2_PLACEMENT_3D('',#1315,#1077,#1078);
#898=AXIS2_PLACEMENT_3D('',#1319,#1081,#1082);
#899=AXIS2_PLACEMENT_3D('',#1321,#1083,#1084);
#900=AXIS2_PLACEMENT_3D('',#1323,#1086,#1087);
#901=AXIS2_PLACEMENT_3D('',#1327,#1090,#1091);
#902=AXIS2_PLACEMENT_3D('',#1331,#1094,#1095);
#903=AXIS2_PLACEMENT_3D('',#1333,#1097,#1098);
#904=AXIS2_PLACEMENT_3D('',#1334,#1099,#1100);
#905=AXIS2_PLACEMENT_3D('',#1337,#1101,#1102);
#906=AXIS2_PLACEMENT_3D('',#1341,#1104,#1105);
#907=AXIS2_PLACEMENT_3D('',#1343,#1107,#1108);
#908=AXIS2_PLACEMENT_3D('',#1349,#1112,#1113);
#909=AXIS2_PLACEMENT_3D('',#1356,#1117,#1118);
#910=AXIS2_PLACEMENT_3D('',#1357,#1119,#1120);
#911=AXIS2_PLACEMENT_3D('',#1360,#1122,#1123);
#912=AXIS2_PLACEMENT_3D('',#1361,#1124,#1125);
#913=AXIS2_PLACEMENT_3D('',#1365,#1128,#1129);
#914=AXIS2_PLACEMENT_3D('',#1369,#1132,#1133);
#915=AXIS2_PLACEMENT_3D('',#1371,#1135,#1136);
#916=AXIS2_PLACEMENT_3D('',#1372,#1137,#1138);
#917=AXIS2_PLACEMENT_3D('',#1375,#1139,#1140);
#918=AXIS2_PLACEMENT_3D('',#1379,#1142,#1143);
#919=AXIS2_PLACEMENT_3D('',#1381,#1145,#1146);
#920=AXIS2_PLACEMENT_3D('',#1385,#1148,#1149);
#921=AXIS2_PLACEMENT_3D('',#1391,#1153,#1154);
#922=AXIS2_PLACEMENT_3D('',#1395,#1157,#1158);
#923=AXIS2_PLACEMENT_3D('',#1397,#1159,#1160);
#924=AXIS2_PLACEMENT_3D('',#1399,#1162,#1163);
#925=AXIS2_PLACEMENT_3D('',#1403,#1166,#1167);
#926=AXIS2_PLACEMENT_3D('',#1407,#1170,#1171);
#927=AXIS2_PLACEMENT_3D('',#1409,#1173,#1174);
#928=AXIS2_PLACEMENT_3D('',#1410,#1175,#1176);
#929=AXIS2_PLACEMENT_3D('',#1411,#1177,#1178);
#930=DIRECTION('axis',(0.,0.,1.));
#931=DIRECTION('refdir',(1.,0.,0.));
#932=DIRECTION('axis',(0.,0.,1.));
#933=DIRECTION('refdir',(1.,0.,0.));
#934=DIRECTION('center_axis',(1.,0.,0.));
#935=DIRECTION('ref_axis',(0.,0.,-1.));
#936=DIRECTION('center_axis',(1.,0.,0.));
#937=DIRECTION('ref_axis',(0.,0.,-1.));
#938=DIRECTION('',(-0.707106781186548,8.65956056235493E-17,-0.707106781186547));
#939=DIRECTION('center_axis',(-1.,0.,0.));
#940=DIRECTION('ref_axis',(0.,0.,-1.));
#941=DIRECTION('center_axis',(1.,0.,0.));
#942=DIRECTION('ref_axis',(0.,0.,-1.));
#943=DIRECTION('center_axis',(1.,0.,0.));
#944=DIRECTION('ref_axis',(0.,0.,-1.));
#945=DIRECTION('center_axis',(-1.,0.,0.));
#946=DIRECTION('ref_axis',(0.,0.,-1.));
#947=DIRECTION('',(-1.,0.,0.));
#948=DIRECTION('center_axis',(1.,0.,0.));
#949=DIRECTION('ref_axis',(0.,0.,-1.));
#950=DIRECTION('center_axis',(0.,-1.,0.));
#951=DIRECTION('ref_axis',(0.,0.,-1.));
#952=DIRECTION('center_axis',(0.,1.,0.));
#953=DIRECTION('ref_axis',(1.,0.,0.));
#954=DIRECTION('center_axis',(-1.,0.,0.));
#955=DIRECTION('ref_axis',(0.,0.,1.));
#956=DIRECTION('center_axis',(0.,-1.,0.));
#957=DIRECTION('ref_axis',(1.,0.,0.));
#958=DIRECTION('center_axis',(0.,-1.,0.));
#959=DIRECTION('ref_axis',(1.,0.,0.));
#960=DIRECTION('center_axis',(0.,-1.,0.));
#961=DIRECTION('ref_axis',(1.,0.,0.));
#962=DIRECTION('',(0.,1.,0.));
#963=DIRECTION('center_axis',(0.,1.,0.));
#964=DIRECTION('ref_axis',(1.,0.,0.));
#965=DIRECTION('center_axis',(0.,1.,0.));
#966=DIRECTION('ref_axis',(1.,0.,0.));
#967=DIRECTION('center_axis',(0.,-1.,0.));
#968=DIRECTION('ref_axis',(0.,0.,-1.));
#969=DIRECTION('center_axis',(0.,1.,0.));
#970=DIRECTION('ref_axis',(1.,0.,0.));
#971=DIRECTION('center_axis',(-1.,0.,0.));
#972=DIRECTION('ref_axis',(0.,0.,1.));
#973=DIRECTION('center_axis',(0.,-1.,0.));
#974=DIRECTION('ref_axis',(1.,0.,0.));
#975=DIRECTION('center_axis',(0.,-1.,0.));
#976=DIRECTION('ref_axis',(1.,0.,0.));
#977=DIRECTION('center_axis',(0.,-1.,0.));
#978=DIRECTION('ref_axis',(1.,0.,0.));
#979=DIRECTION('',(0.,1.,0.));
#980=DIRECTION('center_axis',(0.,1.,0.));
#981=DIRECTION('ref_axis',(1.,0.,0.));
#982=DIRECTION('center_axis',(0.,1.,0.));
#983=DIRECTION('ref_axis',(1.,0.,0.));
#984=DIRECTION('center_axis',(1.,0.,0.));
#985=DIRECTION('ref_axis',(0.,0.,-1.));
#986=DIRECTION('',(-1.,0.,0.));
#987=DIRECTION('center_axis',(-1.,0.,0.));
#988=DIRECTION('ref_axis',(0.,0.,-1.));
#989=DIRECTION('center_axis',(-1.,0.,0.));
#990=DIRECTION('ref_axis',(0.,0.,-1.));
#991=DIRECTION('center_axis',(-1.,0.,0.));
#992=DIRECTION('ref_axis',(0.,0.,-1.));
#993=DIRECTION('center_axis',(1.,0.,0.));
#994=DIRECTION('ref_axis',(0.,0.,-1.));
#995=DIRECTION('',(0.,0.,1.));
#996=DIRECTION('',(0.,1.,0.));
#997=DIRECTION('',(0.,0.,-1.));
#998=DIRECTION('center_axis',(1.,0.,0.));
#999=DIRECTION('ref_axis',(0.,0.,-1.));
#1000=DIRECTION('',(0.,0.,-1.));
#1001=DIRECTION('',(0.,1.,0.));
#1002=DIRECTION('',(0.,0.,1.));
#1003=DIRECTION('center_axis',(0.,0.,1.));
#1004=DIRECTION('ref_axis',(1.,0.,0.));
#1005=DIRECTION('',(-1.,0.,0.));
#1006=DIRECTION('',(1.,0.,0.));
#1007=DIRECTION('',(0.,1.,0.));
#1008=DIRECTION('center_axis',(-1.,0.,0.));
#1009=DIRECTION('ref_axis',(0.,0.,1.));
#1010=DIRECTION('',(0.,0.,-1.));
#1011=DIRECTION('',(0.,0.,1.));
#1012=DIRECTION('',(0.,1.,0.));
#1013=DIRECTION('center_axis',(0.,0.,-1.));
#1014=DIRECTION('ref_axis',(-1.,0.,0.));
#1015=DIRECTION('',(1.,0.,0.));
#1016=DIRECTION('',(-1.,0.,0.));
#1017=DIRECTION('center_axis',(0.,1.,0.));
#1018=DIRECTION('ref_axis',(0.,0.,1.));
#1019=DIRECTION('center_axis',(0.,1.,0.));
#1020=DIRECTION('ref_axis',(1.,0.,0.));
#1021=DIRECTION('axis',(0.,0.,1.));
#1022=DIRECTION('refdir',(1.,0.,0.));
#1023=DIRECTION('center_axis',(0.,0.,1.));
#1024=DIRECTION('ref_axis',(0.707106781186548,-0.707106781186548,0.));
#1025=DIRECTION('center_axis',(0.,0.,-1.));
#1026=DIRECTION('ref_axis',(0.707106781186548,-0.707106781186548,0.));
#1027=DIRECTION('',(0.,0.,-1.));
#1028=DIRECTION('center_axis',(0.,0.,1.));
#1029=DIRECTION('ref_axis',(0.707106781186548,-0.707106781186548,0.));
#1030=DIRECTION('',(0.,0.,1.));
#1031=DIRECTION('center_axis',(0.,0.,-1.));
#1032=DIRECTION('ref_axis',(-1.,0.,0.));
#1033=DIRECTION('',(-1.,0.,0.));
#1034=DIRECTION('center_axis',(0.,0.,1.));
#1035=DIRECTION('ref_axis',(-0.707106781186548,-0.707106781186548,0.));
#1036=DIRECTION('',(0.,1.,0.));
#1037=DIRECTION('',(1.,0.,0.));
#1038=DIRECTION('',(0.,-1.,0.));
#1039=DIRECTION('center_axis',(0.,-1.,0.));
#1040=DIRECTION('ref_axis',(1.,0.,0.));
#1041=DIRECTION('',(1.,0.,0.));
#1042=DIRECTION('',(0.,0.,1.));
#1043=DIRECTION('center_axis',(0.,0.,-1.));
#1044=DIRECTION('ref_axis',(-0.707106781186548,-0.707106781186548,0.));
#1045=DIRECTION('center_axis',(0.,0.,-1.));
#1046=DIRECTION('ref_axis',(-0.707106781186548,-0.707106781186548,0.));
#1047=DIRECTION('',(0.,0.,-1.));
#1048=DIRECTION('center_axis',(-1.,0.,0.));
#1049=DIRECTION('ref_axis',(0.,-1.,0.));
#1050=DIRECTION('',(0.,-1.,0.));
#1051=DIRECTION('',(0.,0.,1.));
#1052=DIRECTION('center_axis',(0.,1.,0.));
#1053=DIRECTION('ref_axis',(-1.,0.,0.));
#1054=DIRECTION('',(-1.,0.,0.));
#1055=DIRECTION('',(0.,0.,1.));
#1056=DIRECTION('center_axis',(1.,0.,0.));
#1057=DIRECTION('ref_axis',(0.,1.,0.));
#1058=DIRECTION('',(0.,1.,0.));
#1059=DIRECTION('center_axis',(0.,0.,1.));
#1060=DIRECTION('ref_axis',(1.,0.,0.));
#1061=DIRECTION('center_axis',(0.,0.,1.));
#1062=DIRECTION('ref_axis',(0.707106781186547,-0.707106781186548,0.));
#1063=DIRECTION('center_axis',(0.,0.,-1.));
#1064=DIRECTION('ref_axis',(0.707106781186547,-0.707106781186548,0.));
#1065=DIRECTION('',(0.,0.,-1.));
#1066=DIRECTION('center_axis',(0.,0.,1.));
#1067=DIRECTION('ref_axis',(0.707106781186547,-0.707106781186548,0.));
#1068=DIRECTION('',(0.,0.,1.));
#1069=DIRECTION('center_axis',(0.,0.,-1.));
#1070=DIRECTION('ref_axis',(-1.,0.,0.));
#1071=DIRECTION('',(-1.,0.,0.));
#1072=DIRECTION('center_axis',(0.,0.,1.));
#1073=DIRECTION('ref_axis',(-0.707106781186547,-0.707106781186548,0.));
#1074=DIRECTION('',(0.,1.,0.));
#1075=DIRECTION('',(1.,0.,0.));
#1076=DIRECTION('',(0.,-1.,0.));
#1077=DIRECTION('center_axis',(0.,-1.,0.));
#1078=DIRECTION('ref_axis',(1.,0.,0.));
#1079=DIRECTION('',(1.,0.,0.));
#1080=DIRECTION('',(0.,0.,1.));
#1081=DIRECTION('center_axis',(0.,0.,-1.));
#1082=DIRECTION('ref_axis',(-0.707106781186547,-0.707106781186548,0.));
#1083=DIRECTION('center_axis',(0.,0.,-1.));
#1084=DIRECTION('ref_axis',(-0.707106781186547,-0.707106781186548,0.));
#1085=DIRECTION('',(0.,0.,-1.));
#1086=DIRECTION('center_axis',(-1.,0.,0.));
#1087=DIRECTION('ref_axis',(0.,-1.,0.));
#1088=DIRECTION('',(0.,-1.,0.));
#1089=DIRECTION('',(0.,0.,1.));
#1090=DIRECTION('center_axis',(0.,1.,0.));
#1091=DIRECTION('ref_axis',(-1.,0.,0.));
#1092=DIRECTION('',(-1.,0.,0.));
#1093=DIRECTION('',(0.,0.,1.));
#1094=DIRECTION('center_axis',(1.,0.,0.));
#1095=DIRECTION('ref_axis',(0.,1.,0.));
#1096=DIRECTION('',(0.,1.,0.));
#1097=DIRECTION('center_axis',(0.,0.,1.));
#1098=DIRECTION('ref_axis',(1.,0.,0.));
#1099=DIRECTION('center_axis',(0.,0.,1.));
#1100=DIRECTION('ref_axis',(-0.707106781186548,-0.707106781186548,0.));
#1101=DIRECTION('center_axis',(0.,0.,-1.));
#1102=DIRECTION('ref_axis',(-0.707106781186548,-0.707106781186548,0.));
#1103=DIRECTION('',(0.,0.,-1.));
#1104=DIRECTION('center_axis',(0.,0.,1.));
#1105=DIRECTION('ref_axis',(-0.707106781186548,-0.707106781186548,0.));
#1106=DIRECTION('',(0.,0.,1.));
#1107=DIRECTION('center_axis',(0.,-1.,0.));
#1108=DIRECTION('ref_axis',(1.,0.,0.));
#1109=DIRECTION('',(-1.,0.,0.));
#1110=DIRECTION('',(0.,0.,-1.));
#1111=DIRECTION('',(1.,0.,0.));
#1112=DIRECTION('center_axis',(0.,0.,-1.));
#1113=DIRECTION('ref_axis',(-1.,0.,0.));
#1114=DIRECTION('',(0.,1.,0.));
#1115=DIRECTION('',(1.,0.,0.));
#1116=DIRECTION('',(0.,-1.,0.));
#1117=DIRECTION('center_axis',(0.,0.,1.));
#1118=DIRECTION('ref_axis',(0.707106781186548,-0.707106781186548,0.));
#1119=DIRECTION('center_axis',(0.,0.,-1.));
#1120=DIRECTION('ref_axis',(0.707106781186548,-0.707106781186548,0.));
#1121=DIRECTION('',(0.,0.,1.));
#1122=DIRECTION('center_axis',(0.,0.,-1.));
#1123=DIRECTION('ref_axis',(0.707106781186548,-0.707106781186548,0.));
#1124=DIRECTION('center_axis',(1.,0.,0.));
#1125=DIRECTION('ref_axis',(0.,1.,0.));
#1126=DIRECTION('',(0.,0.,1.));
#1127=DIRECTION('',(0.,1.,0.));
#1128=DIRECTION('center_axis',(-1.,0.,0.));
#1129=DIRECTION('ref_axis',(0.,-1.,0.));
#1130=DIRECTION('',(0.,-1.,0.));
#1131=DIRECTION('',(0.,0.,1.));
#1132=DIRECTION('center_axis',(0.,1.,0.));
#1133=DIRECTION('ref_axis',(-1.,0.,0.));
#1134=DIRECTION('',(-1.,0.,0.));
#1135=DIRECTION('center_axis',(0.,0.,1.));
#1136=DIRECTION('ref_axis',(1.,0.,0.));
#1137=DIRECTION('center_axis',(0.,0.,-1.));
#1138=DIRECTION('ref_axis',(0.707106781186548,-0.707106781186548,0.));
#1139=DIRECTION('center_axis',(0.,0.,1.));
#1140=DIRECTION('ref_axis',(0.707106781186548,-0.707106781186548,0.));
#1141=DIRECTION('',(0.,0.,1.));
#1142=DIRECTION('center_axis',(0.,0.,-1.));
#1143=DIRECTION('ref_axis',(0.707106781186548,-0.707106781186548,0.));
#1144=DIRECTION('',(0.,0.,-1.));
#1145=DIRECTION('center_axis',(0.,0.,-1.));
#1146=DIRECTION('ref_axis',(-1.,0.,0.));
#1147=DIRECTION('',(-1.,0.,0.));
#1148=DIRECTION('center_axis',(0.,0.,1.));
#1149=DIRECTION('ref_axis',(-0.707106781186548,-0.707106781186548,0.));
#1150=DIRECTION('',(0.,1.,0.));
#1151=DIRECTION('',(1.,0.,0.));
#1152=DIRECTION('',(0.,-1.,0.));
#1153=DIRECTION('center_axis',(0.,-1.,0.));
#1154=DIRECTION('ref_axis',(1.,0.,0.));
#1155=DIRECTION('',(1.,0.,0.));
#1156=DIRECTION('',(0.,0.,1.));
#1157=DIRECTION('center_axis',(0.,0.,1.));
#1158=DIRECTION('ref_axis',(-0.707106781186548,-0.707106781186548,0.));
#1159=DIRECTION('center_axis',(0.,0.,-1.));
#1160=DIRECTION('ref_axis',(-0.707106781186548,-0.707106781186548,0.));
#1161=DIRECTION('',(0.,0.,-1.));
#1162=DIRECTION('center_axis',(-1.,0.,0.));
#1163=DIRECTION('ref_axis',(0.,-1.,0.));
#1164=DIRECTION('',(0.,-1.,0.));
#1165=DIRECTION('',(0.,0.,1.));
#1166=DIRECTION('center_axis',(0.,1.,0.));
#1167=DIRECTION('ref_axis',(-1.,0.,0.));
#1168=DIRECTION('',(-1.,0.,0.));
#1169=DIRECTION('',(0.,0.,1.));
#1170=DIRECTION('center_axis',(1.,0.,0.));
#1171=DIRECTION('ref_axis',(0.,1.,0.));
#1172=DIRECTION('',(0.,1.,0.));
#1173=DIRECTION('center_axis',(0.,0.,1.));
#1174=DIRECTION('ref_axis',(1.,0.,0.));
#1175=DIRECTION('',(0.,0.,1.));
#1176=DIRECTION('',(1.,0.,0.));
#1177=DIRECTION('',(0.,0.,1.));
#1178=DIRECTION('',(1.,0.,0.));
#1179=CARTESIAN_POINT('',(0.,0.,0.));
#1180=CARTESIAN_POINT('',(0.,0.,0.));
#1181=CARTESIAN_POINT('Origin',(7.9,2.5,0.));
#1182=CARTESIAN_POINT('',(8.,2.5,2.));
#1183=CARTESIAN_POINT('Origin',(8.,2.5,0.));
#1184=CARTESIAN_POINT('',(7.8,2.5,1.8));
#1185=CARTESIAN_POINT('',(7.9,2.5,1.9));
#1186=CARTESIAN_POINT('Origin',(7.8,2.5,0.));
#1187=CARTESIAN_POINT('Origin',(8.,2.5,0.));
#1188=CARTESIAN_POINT('',(8.,2.5,2.5));
#1189=CARTESIAN_POINT('Origin',(8.,2.5,0.));
#1190=CARTESIAN_POINT('Origin',(6.,2.5,0.));
#1191=CARTESIAN_POINT('',(-6.,2.5,1.8));
#1192=CARTESIAN_POINT('',(6.,2.5,1.8));
#1193=CARTESIAN_POINT('Origin',(-6.,2.5,0.));
#1194=CARTESIAN_POINT('Origin',(4.4,-0.45,0.));
#1195=CARTESIAN_POINT('',(4.4,-0.6,0.25));
#1196=CARTESIAN_POINT('Origin',(4.4,-0.6,0.));
#1197=CARTESIAN_POINT('',(4.4,-0.45,0.4));
#1198=CARTESIAN_POINT('Origin',(4.4,-0.45,0.25));
#1199=CARTESIAN_POINT('',(4.,-0.45,-4.89858719658942E-17));
#1200=CARTESIAN_POINT('Origin',(4.4,-0.45,0.));
#1201=CARTESIAN_POINT('Origin',(4.4,-0.45,0.));
#1202=CARTESIAN_POINT('Origin',(4.4,0.,0.));
#1203=CARTESIAN_POINT('',(4.,0.,4.89858719658942E-17));
#1204=CARTESIAN_POINT('',(4.,0.,-4.89858719658942E-17));
#1205=CARTESIAN_POINT('Origin',(4.4,0.,0.));
#1206=CARTESIAN_POINT('Origin',(4.4,-0.6,0.));
#1207=CARTESIAN_POINT('Origin',(-2.6,-0.45,0.));
#1208=CARTESIAN_POINT('',(-2.6,-0.6,0.25));
#1209=CARTESIAN_POINT('Origin',(-2.6,-0.6,0.));
#1210=CARTESIAN_POINT('',(-2.6,-0.45,0.4));
#1211=CARTESIAN_POINT('Origin',(-2.6,-0.45,0.25));
#1212=CARTESIAN_POINT('',(-3.,-0.45,-4.89858719658941E-17));
#1213=CARTESIAN_POINT('Origin',(-2.6,-0.45,0.));
#1214=CARTESIAN_POINT('Origin',(-2.6,-0.45,0.));
#1215=CARTESIAN_POINT('Origin',(-2.6,0.,0.));
#1216=CARTESIAN_POINT('',(-3.,0.,4.89858719658941E-17));
#1217=CARTESIAN_POINT('',(-3.,0.,-4.89858719658941E-17));
#1218=CARTESIAN_POINT('Origin',(-2.6,0.,0.));
#1219=CARTESIAN_POINT('Origin',(-2.6,-0.6,0.));
#1220=CARTESIAN_POINT('Origin',(6.,2.5,0.));
#1221=CARTESIAN_POINT('',(6.,2.5,2.5));
#1222=CARTESIAN_POINT('',(6.,2.5,2.5));
#1223=CARTESIAN_POINT('',(6.,0.,0.));
#1224=CARTESIAN_POINT('Origin',(6.,2.5,0.));
#1225=CARTESIAN_POINT('',(6.,5.,0.));
#1226=CARTESIAN_POINT('Origin',(6.,2.5,0.));
#1227=CARTESIAN_POINT('Origin',(6.,2.5,0.));
#1228=CARTESIAN_POINT('Origin',(6.,0.,3.));
#1229=CARTESIAN_POINT('',(6.,0.,-3.));
#1230=CARTESIAN_POINT('',(6.,0.,-3.));
#1231=CARTESIAN_POINT('',(6.,5.,-3.));
#1232=CARTESIAN_POINT('',(6.,0.,-3.));
#1233=CARTESIAN_POINT('',(6.,5.,-3.));
#1234=CARTESIAN_POINT('Origin',(6.,0.,3.));
#1235=CARTESIAN_POINT('',(6.,5.,3.));
#1236=CARTESIAN_POINT('',(6.,5.,-3.));
#1237=CARTESIAN_POINT('',(6.,0.,3.));
#1238=CARTESIAN_POINT('',(6.,0.,3.));
#1239=CARTESIAN_POINT('',(6.,0.,-3.));
#1240=CARTESIAN_POINT('Origin',(-6.,0.,3.));
#1241=CARTESIAN_POINT('',(-6.,0.,3.));
#1242=CARTESIAN_POINT('',(6.,0.,3.));
#1243=CARTESIAN_POINT('',(-6.,5.,3.));
#1244=CARTESIAN_POINT('',(6.,5.,3.));
#1245=CARTESIAN_POINT('',(-6.,0.,3.));
#1246=CARTESIAN_POINT('Origin',(-6.,0.,-3.));
#1247=CARTESIAN_POINT('',(-6.,0.,-3.));
#1248=CARTESIAN_POINT('',(-6.,0.,3.));
#1249=CARTESIAN_POINT('',(-6.,5.,-3.));
#1250=CARTESIAN_POINT('',(-6.,5.,3.));
#1251=CARTESIAN_POINT('',(-6.,0.,-3.));
#1252=CARTESIAN_POINT('Origin',(6.,0.,-3.));
#1253=CARTESIAN_POINT('',(-6.,0.,-3.));
#1254=CARTESIAN_POINT('',(-6.,5.,-3.));
#1255=CARTESIAN_POINT('Origin',(0.,5.,0.));
#1256=CARTESIAN_POINT('Origin',(0.,0.,0.));
#1257=CARTESIAN_POINT('',(0.,0.,0.));
#1258=CARTESIAN_POINT('Origin',(-4.1,-2.3,2.3));
#1259=CARTESIAN_POINT('',(-3.9,-2.3,2.38));
#1260=CARTESIAN_POINT('',(-4.1,-2.5,2.38));
#1261=CARTESIAN_POINT('Origin',(-4.1,-2.3,2.38));
#1262=CARTESIAN_POINT('',(-4.1,-2.5,2.22));
#1263=CARTESIAN_POINT('',(-4.1,-2.5,2.3));
#1264=CARTESIAN_POINT('',(-3.9,-2.3,2.22));
#1265=CARTESIAN_POINT('Origin',(-4.1,-2.3,2.22));
#1266=CARTESIAN_POINT('',(-3.9,-2.3,2.3));
#1267=CARTESIAN_POINT('Origin',(-4.4,-1.25,2.22));
#1268=CARTESIAN_POINT('',(-4.7,-2.5,2.22));
#1269=CARTESIAN_POINT('',(-3.9,-2.5,2.22));
#1270=CARTESIAN_POINT('',(-4.9,-2.3,2.22));
#1271=CARTESIAN_POINT('Origin',(-4.7,-2.3,2.22));
#1272=CARTESIAN_POINT('',(-4.9,0.,2.22));
#1273=CARTESIAN_POINT('',(-4.9,-2.5,2.22));
#1274=CARTESIAN_POINT('',(-3.9,0.,2.22));
#1275=CARTESIAN_POINT('',(-4.9,0.,2.22));
#1276=CARTESIAN_POINT('',(-3.9,0.,2.22));
#1277=CARTESIAN_POINT('Origin',(-4.9,-2.5,2.3));
#1278=CARTESIAN_POINT('',(-4.7,-2.5,2.38));
#1279=CARTESIAN_POINT('',(-3.9,-2.5,2.38));
#1280=CARTESIAN_POINT('',(-4.7,-2.5,2.3));
#1281=CARTESIAN_POINT('Origin',(-4.7,-2.3,2.3));
#1282=CARTESIAN_POINT('',(-4.9,-2.3,2.38));
#1283=CARTESIAN_POINT('Origin',(-4.7,-2.3,2.38));
#1284=CARTESIAN_POINT('',(-4.9,-2.3,2.3));
#1285=CARTESIAN_POINT('Origin',(-4.9,0.,2.3));
#1286=CARTESIAN_POINT('',(-4.9,0.,2.38));
#1287=CARTESIAN_POINT('',(-4.9,-2.5,2.38));
#1288=CARTESIAN_POINT('',(-4.9,0.,2.3));
#1289=CARTESIAN_POINT('Origin',(-3.9,0.,2.3));
#1290=CARTESIAN_POINT('',(-3.9,0.,2.38));
#1291=CARTESIAN_POINT('',(-4.9,0.,2.38));
#1292=CARTESIAN_POINT('',(-3.9,0.,2.3));
#1293=CARTESIAN_POINT('Origin',(-3.9,-2.5,2.3));
#1294=CARTESIAN_POINT('',(-3.9,0.,2.38));
#1295=CARTESIAN_POINT('Origin',(-4.4,-1.25,2.38));
#1296=CARTESIAN_POINT('Origin',(-0.1,-2.3,2.3));
#1297=CARTESIAN_POINT('',(0.1,-2.3,2.38));
#1298=CARTESIAN_POINT('',(-0.1,-2.5,2.38));
#1299=CARTESIAN_POINT('Origin',(-0.1,-2.3,2.38));
#1300=CARTESIAN_POINT('',(-0.1,-2.5,2.22));
#1301=CARTESIAN_POINT('',(-0.1,-2.5,2.3));
#1302=CARTESIAN_POINT('',(0.1,-2.3,2.22));
#1303=CARTESIAN_POINT('Origin',(-0.1,-2.3,2.22));
#1304=CARTESIAN_POINT('',(0.1,-2.3,2.3));
#1305=CARTESIAN_POINT('Origin',(-0.4,-1.25,2.22));
#1306=CARTESIAN_POINT('',(-0.7,-2.5,2.22));
#1307=CARTESIAN_POINT('',(0.1,-2.5,2.22));
#1308=CARTESIAN_POINT('',(-0.9,-2.3,2.22));
#1309=CARTESIAN_POINT('Origin',(-0.7,-2.3,2.22));
#1310=CARTESIAN_POINT('',(-0.9,0.,2.22));
#1311=CARTESIAN_POINT('',(-0.9,-2.5,2.22));
#1312=CARTESIAN_POINT('',(0.1,0.,2.22));
#1313=CARTESIAN_POINT('',(-0.9,0.,2.22));
#1314=CARTESIAN_POINT('',(0.1,0.,2.22));
#1315=CARTESIAN_POINT('Origin',(-0.9,-2.5,2.3));
#1316=CARTESIAN_POINT('',(-0.7,-2.5,2.38));
#1317=CARTESIAN_POINT('',(0.1,-2.5,2.38));
#1318=CARTESIAN_POINT('',(-0.7,-2.5,2.3));
#1319=CARTESIAN_POINT('Origin',(-0.7,-2.3,2.3));
#1320=CARTESIAN_POINT('',(-0.9,-2.3,2.38));
#1321=CARTESIAN_POINT('Origin',(-0.7,-2.3,2.38));
#1322=CARTESIAN_POINT('',(-0.9,-2.3,2.3));
#1323=CARTESIAN_POINT('Origin',(-0.9,0.,2.3));
#1324=CARTESIAN_POINT('',(-0.9,0.,2.38));
#1325=CARTESIAN_POINT('',(-0.9,-2.5,2.38));
#1326=CARTESIAN_POINT('',(-0.9,0.,2.3));
#1327=CARTESIAN_POINT('Origin',(0.1,0.,2.3));
#1328=CARTESIAN_POINT('',(0.1,0.,2.38));
#1329=CARTESIAN_POINT('',(-0.9,0.,2.38));
#1330=CARTESIAN_POINT('',(0.1,0.,2.3));
#1331=CARTESIAN_POINT('Origin',(0.1,-2.5,2.3));
#1332=CARTESIAN_POINT('',(0.1,0.,2.38));
#1333=CARTESIAN_POINT('Origin',(-0.4,-1.25,2.38));
#1334=CARTESIAN_POINT('Origin',(2.4,-2.3,2.3));
#1335=CARTESIAN_POINT('',(2.4,-2.5,2.38));
#1336=CARTESIAN_POINT('',(2.2,-2.3,2.38));
#1337=CARTESIAN_POINT('Origin',(2.4,-2.3,2.38));
#1338=CARTESIAN_POINT('',(2.2,-2.3,2.22));
#1339=CARTESIAN_POINT('',(2.2,-2.3,2.3));
#1340=CARTESIAN_POINT('',(2.4,-2.5,2.22));
#1341=CARTESIAN_POINT('Origin',(2.4,-2.3,2.22));
#1342=CARTESIAN_POINT('',(2.4,-2.5,2.3));
#1343=CARTESIAN_POINT('Origin',(2.2,-2.5,2.3));
#1344=CARTESIAN_POINT('',(3.,-2.5,2.22));
#1345=CARTESIAN_POINT('',(2.2,-2.5,2.22));
#1346=CARTESIAN_POINT('',(3.,-2.5,2.38));
#1347=CARTESIAN_POINT('',(3.,-2.5,2.3));
#1348=CARTESIAN_POINT('',(2.2,-2.5,2.38));
#1349=CARTESIAN_POINT('Origin',(2.7,-1.25,2.22));
#1350=CARTESIAN_POINT('',(2.2,0.,2.22));
#1351=CARTESIAN_POINT('',(2.2,0.,2.22));
#1352=CARTESIAN_POINT('',(3.2,0.,2.22));
#1353=CARTESIAN_POINT('',(3.2,0.,2.22));
#1354=CARTESIAN_POINT('',(3.2,-2.3,2.22));
#1355=CARTESIAN_POINT('',(3.2,-2.5,2.22));
#1356=CARTESIAN_POINT('Origin',(3.,-2.3,2.22));
#1357=CARTESIAN_POINT('Origin',(3.,-2.3,2.3));
#1358=CARTESIAN_POINT('',(3.2,-2.3,2.38));
#1359=CARTESIAN_POINT('',(3.2,-2.3,2.3));
#1360=CARTESIAN_POINT('Origin',(3.,-2.3,2.38));
#1361=CARTESIAN_POINT('Origin',(3.2,-2.5,2.3));
#1362=CARTESIAN_POINT('',(3.2,0.,2.38));
#1363=CARTESIAN_POINT('',(3.2,0.,2.3));
#1364=CARTESIAN_POINT('',(3.2,-2.5,2.38));
#1365=CARTESIAN_POINT('Origin',(2.2,0.,2.3));
#1366=CARTESIAN_POINT('',(2.2,0.,2.38));
#1367=CARTESIAN_POINT('',(2.2,0.,2.38));
#1368=CARTESIAN_POINT('',(2.2,0.,2.3));
#1369=CARTESIAN_POINT('Origin',(3.2,0.,2.3));
#1370=CARTESIAN_POINT('',(3.2,0.,2.38));
#1371=CARTESIAN_POINT('Origin',(2.7,-1.25,2.38));
#1372=CARTESIAN_POINT('Origin',(-5.,-2.3,-2.15));
#1373=CARTESIAN_POINT('',(-5.,-2.5,-2.23));
#1374=CARTESIAN_POINT('',(-4.8,-2.3,-2.23));
#1375=CARTESIAN_POINT('Origin',(-5.,-2.3,-2.23));
#1376=CARTESIAN_POINT('',(-4.8,-2.3,-2.07));
#1377=CARTESIAN_POINT('',(-4.8,-2.3,-2.15));
#1378=CARTESIAN_POINT('',(-5.,-2.5,-2.07));
#1379=CARTESIAN_POINT('Origin',(-5.,-2.3,-2.07));
#1380=CARTESIAN_POINT('',(-5.,-2.5,-2.15));
#1381=CARTESIAN_POINT('Origin',(-5.3,-1.25,-2.23));
#1382=CARTESIAN_POINT('',(-5.6,-2.5,-2.23));
#1383=CARTESIAN_POINT('',(-5.8,-2.5,-2.23));
#1384=CARTESIAN_POINT('',(-5.8,-2.3,-2.23));
#1385=CARTESIAN_POINT('Origin',(-5.6,-2.3,-2.23));
#1386=CARTESIAN_POINT('',(-5.8,0.,-2.23));
#1387=CARTESIAN_POINT('',(-5.8,0.,-2.23));
#1388=CARTESIAN_POINT('',(-4.8,0.,-2.23));
#1389=CARTESIAN_POINT('',(-4.8,0.,-2.23));
#1390=CARTESIAN_POINT('',(-4.8,-2.5,-2.23));
#1391=CARTESIAN_POINT('Origin',(-5.8,-2.5,-2.15));
#1392=CARTESIAN_POINT('',(-5.6,-2.5,-2.07));
#1393=CARTESIAN_POINT('',(-5.8,-2.5,-2.07));
#1394=CARTESIAN_POINT('',(-5.6,-2.5,-2.15));
#1395=CARTESIAN_POINT('Origin',(-5.6,-2.3,-2.15));
#1396=CARTESIAN_POINT('',(-5.8,-2.3,-2.07));
#1397=CARTESIAN_POINT('Origin',(-5.6,-2.3,-2.07));
#1398=CARTESIAN_POINT('',(-5.8,-2.3,-2.15));
#1399=CARTESIAN_POINT('Origin',(-5.8,0.,-2.15));
#1400=CARTESIAN_POINT('',(-5.8,0.,-2.07));
#1401=CARTESIAN_POINT('',(-5.8,0.,-2.07));
#1402=CARTESIAN_POINT('',(-5.8,0.,-2.15));
#1403=CARTESIAN_POINT('Origin',(-4.8,0.,-2.15));
#1404=CARTESIAN_POINT('',(-4.8,0.,-2.07));
#1405=CARTESIAN_POINT('',(-4.8,0.,-2.07));
#1406=CARTESIAN_POINT('',(-4.8,0.,-2.15));
#1407=CARTESIAN_POINT('Origin',(-4.8,-2.5,-2.15));
#1408=CARTESIAN_POINT('',(-4.8,-2.5,-2.07));
#1409=CARTESIAN_POINT('Origin',(-5.3,-1.25,-2.07));
#1410=CARTESIAN_POINT('',(0.,0.,0.));
#1411=CARTESIAN_POINT('',(0.,0.,0.));
#1412=UNCERTAINTY_MEASURE_WITH_UNIT(LENGTH_MEASURE(0.01),#1420,
'DISTANCE_ACCURACY_VALUE',
'Maximum model space distance between geometric entities at asserted c
onnectivities');
#1413=UNCERTAINTY_MEASURE_WITH_UNIT(LENGTH_MEASURE(0.01),#1420,
'DISTANCE_ACCURACY_VALUE',
'Maximum model space distance between geometric entities at asserted c
onnectivities');
#1414=UNCERTAINTY_MEASURE_WITH_UNIT(LENGTH_MEASURE(0.01),#1420,
'DISTANCE_ACCURACY_VALUE',
'Maximum model space distance between geometric entities at asserted c
onnectivities');
#1415=UNCERTAINTY_MEASURE_WITH_UNIT(LENGTH_MEASURE(0.01),#1420,
'DISTANCE_ACCURACY_VALUE',
'Maximum model space distance between geometric entities at asserted c
onnectivities');
#1416=(
GEOMETRIC_REPRESENTATION_CONTEXT(3)
GLOBAL_UNCERTAINTY_ASSIGNED_CONTEXT((#1412))
GLOBAL_UNIT_ASSIGNED_CONTEXT((#1420,#1422,#1423))
REPRESENTATION_CONTEXT('','3D')
);
#1417=(
GEOMETRIC_REPRESENTATION_CONTEXT(3)
GLOBAL_UNCERTAINTY_ASSIGNED_CONTEXT((#1413))
GLOBAL_UNIT_ASSIGNED_CONTEXT((#1420,#1422,#1423))
REPRESENTATION_CONTEXT('','3D')
);
#1418=(
GEOMETRIC_REPRESENTATION_CONTEXT(3)
GLOBAL_UNCERTAINTY_ASSIGNED_CONTEXT((#1414))
GLOBAL_UNIT_ASSIGNED_CONTEXT((#1420,#1422,#1423))
REPRESENTATION_CONTEXT('','3D')
);
#1419=(
GEOMETRIC_REPRESENTATION_CONTEXT(3)
GLOBAL_UNCERTAINTY_ASSIGNED_CONTEXT((#1415))
GLOBAL_UNIT_ASSIGNED_CONTEXT((#1420,#1422,#1423))
REPRESENTATION_CONTEXT('','3D')
);
#1420=(
LENGTH_UNIT()
NAMED_UNIT(*)
SI_UNIT(.MILLI.,.METRE.)
);
#1421=(
LENGTH_UNIT()
NAMED_UNIT(*)
SI_UNIT($,.METRE.)
);
#1422=(
NAMED_UNIT(*)
PLANE_ANGLE_UNIT()
SI_UNIT($,.RADIAN.)
);
#1423=(
NAMED_UNIT(*)
SI_UNIT($,.STERADIAN.)
SOLID_ANGLE_UNIT()
);
#1424=SHAPE_DEFINITION_REPRESENTATION(#1427,#1432);
#1425=SHAPE_DEFINITION_REPRESENTATION(#1428,#1433);
#1426=SHAPE_DEFINITION_REPRESENTATION(#1429,#1434);
#1427=PRODUCT_DEFINITION_SHAPE('',$,#1436);
#1428=PRODUCT_DEFINITION_SHAPE('',$,#1437);
#1429=PRODUCT_DEFINITION_SHAPE('',$,#1438);
#1430=PRODUCT_DEFINITION_SHAPE($,$,#17);
#1431=PRODUCT_DEFINITION_SHAPE($,$,#18);
#1432=SHAPE_REPRESENTATION('',(#843,#928,#929),#1416);
#1433=SHAPE_REPRESENTATION('',(#844),#1417);
#1434=SHAPE_REPRESENTATION('',(#879),#1418);
#1435=PRODUCT_DEFINITION_CONTEXT('part definition',#1446,'design');
#1436=PRODUCT_DEFINITION('Trrs_pj-320A','Trrs_pj-320A v4',#1439,#1435);
#1437=PRODUCT_DEFINITION('body','body',#1440,#1435);
#1438=PRODUCT_DEFINITION('legs','legs',#1441,#1435);
#1439=PRODUCT_DEFINITION_FORMATION('',$,#1448);
#1440=PRODUCT_DEFINITION_FORMATION('',$,#1449);
#1441=PRODUCT_DEFINITION_FORMATION('',$,#1450);
#1442=PRODUCT_RELATED_PRODUCT_CATEGORY('Trrs_pj-320A v4',
'Trrs_pj-320A v4',(#1448));
#1443=PRODUCT_RELATED_PRODUCT_CATEGORY('body','body',(#1449));
#1444=PRODUCT_RELATED_PRODUCT_CATEGORY('legs','legs',(#1450));
#1445=APPLICATION_PROTOCOL_DEFINITION('international standard',
'automotive_design',2009,#1446);
#1446=APPLICATION_CONTEXT(
'Core Data for Automotive Mechanical Design Process');
#1447=PRODUCT_CONTEXT('part definition',#1446,'mechanical');
#1448=PRODUCT('Trrs_pj-320A','Trrs_pj-320A v4',$,(#1447));
#1449=PRODUCT('body','body',$,(#1447));
#1450=PRODUCT('legs','legs',$,(#1447));
#1451=PRESENTATION_STYLE_ASSIGNMENT((#1454));
#1452=PRESENTATION_STYLE_ASSIGNMENT((#1455));
#1453=PRESENTATION_STYLE_ASSIGNMENT((#1456));
#1454=SURFACE_STYLE_USAGE(.BOTH.,#1457);
#1455=SURFACE_STYLE_USAGE(.BOTH.,#1458);
#1456=SURFACE_STYLE_USAGE(.BOTH.,#1459);
#1457=SURFACE_SIDE_STYLE('',(#1460));
#1458=SURFACE_SIDE_STYLE('',(#1461));
#1459=SURFACE_SIDE_STYLE('',(#1462));
#1460=SURFACE_STYLE_FILL_AREA(#1463);
#1461=SURFACE_STYLE_FILL_AREA(#1464);
#1462=SURFACE_STYLE_FILL_AREA(#1465);
#1463=FILL_AREA_STYLE('Steel - Satin',(#1466));
#1464=FILL_AREA_STYLE('Plastic - Matte (Black)',(#1467));
#1465=FILL_AREA_STYLE('Copper - Polished',(#1468));
#1466=FILL_AREA_STYLE_COLOUR('Steel - Satin',#1469);
#1467=FILL_AREA_STYLE_COLOUR('Plastic - Matte (Black)',#1470);
#1468=FILL_AREA_STYLE_COLOUR('Copper - Polished',#1471);
#1469=COLOUR_RGB('Steel - Satin',0.627450980392157,0.627450980392157,0.627450980392157);
#1470=COLOUR_RGB('Plastic - Matte (Black)',0.0980392156862745,0.0980392156862745,
0.0980392156862745);
#1471=COLOUR_RGB('Copper - Polished',0.929411764705882,0.807843137254902,
0.764705882352941);
ENDSEC;
END-ISO-10303-21;
